PROXY_AFP_ENG_20021226_0132.1
PROXY_AFP_ENG_20021226_0132.2
PROXY_AFP_ENG_20021226_0132.3
PROXY_AFP_ENG_20021226_0132.4
PROXY_AFP_ENG_20021226_0132.5
PROXY_AFP_ENG_20021226_0132.6
PROXY_AFP_ENG_20021226_0132.7
PROXY_AFP_ENG_20021226_0132.8
PROXY_AFP_ENG_20021226_0132.9
PROXY_AFP_ENG_20021226_0132.10
PROXY_AFP_ENG_20021226_0132.11
PROXY_AFP_ENG_20021226_0132.12
PROXY_AFP_ENG_20021226_0132.13
PROXY_AFP_ENG_20021226_0132.14
PROXY_AFP_ENG_20021226_0132.15
PROXY_AFP_ENG_20021226_0132.16
PROXY_AFP_ENG_20021226_0132.17
PROXY_AFP_ENG_20021226_0132.18
PROXY_AFP_ENG_20021226_0132.19
PROXY_AFP_ENG_20021226_0132.20
PROXY_AFP_ENG_20021226_0132.21
PROXY_AFP_ENG_20021226_0132.22
PROXY_AFP_ENG_20021226_0132.23
PROXY_AFP_ENG_20021226_0132.24
PROXY_AFP_ENG_20021226_0132.25
PROXY_AFP_ENG_20021226_0132.26
PROXY_AFP_ENG_20021226_0132.27
PROXY_AFP_ENG_20021226_0132.28
PROXY_AFP_ENG_20021226_0132.29
PROXY_AFP_ENG_20021226_0132.30
PROXY_AFP_ENG_20021226_0132.31
PROXY_AFP_ENG_20021226_0132.32
PROXY_AFP_ENG_20021226_0132.33
PROXY_AFP_ENG_20021226_0132.34
PROXY_AFP_ENG_20021226_0132.35
PROXY_AFP_ENG_20021226_0132.36
PROXY_AFP_ENG_20021226_0132.37
PROXY_AFP_ENG_20021226_0132.38
PROXY_AFP_ENG_20021226_0132.39
PROXY_AFP_ENG_20020115_0320.1
PROXY_AFP_ENG_20020115_0320.2
PROXY_AFP_ENG_20020115_0320.3
PROXY_AFP_ENG_20020115_0320.4
PROXY_AFP_ENG_20020115_0320.5
PROXY_AFP_ENG_20020115_0320.6
PROXY_AFP_ENG_20020115_0320.7
PROXY_AFP_ENG_20020115_0320.8
PROXY_AFP_ENG_20020115_0320.9
PROXY_AFP_ENG_20020115_0320.10
PROXY_AFP_ENG_20020115_0320.11
PROXY_AFP_ENG_20020115_0320.12
PROXY_AFP_ENG_20020115_0320.13
PROXY_AFP_ENG_20020115_0320.14
PROXY_AFP_ENG_20020115_0320.15
PROXY_AFP_ENG_20020115_0320.16
PROXY_AFP_ENG_20020115_0320.17
PROXY_AFP_ENG_20020115_0320.18
PROXY_AFP_ENG_20020115_0320.19
PROXY_AFP_ENG_20020115_0320.20
PROXY_AFP_ENG_20020115_0320.21
PROXY_AFP_ENG_20020115_0320.22
PROXY_AFP_ENG_20020115_0320.23
PROXY_AFP_ENG_20020115_0320.24
PROXY_AFP_ENG_20020115_0320.25
PROXY_AFP_ENG_20020115_0320.26
PROXY_AFP_ENG_20020115_0320.27
PROXY_AFP_ENG_20020115_0320.28
PROXY_AFP_ENG_20020115_0320.29
PROXY_AFP_ENG_20020115_0320.30
PROXY_AFP_ENG_20020115_0320.31
PROXY_AFP_ENG_20020115_0320.32
PROXY_AFP_ENG_20020115_0320.33
PROXY_AFP_ENG_20020115_0320.34
PROXY_AFP_ENG_20070327_0167.1
PROXY_AFP_ENG_20070327_0167.2
PROXY_AFP_ENG_20070327_0167.3
PROXY_AFP_ENG_20070327_0167.4
PROXY_AFP_ENG_20070327_0167.5
PROXY_AFP_ENG_20070327_0167.6
PROXY_AFP_ENG_20070327_0167.7
PROXY_AFP_ENG_20070327_0167.8
PROXY_AFP_ENG_20070327_0167.9
PROXY_AFP_ENG_20070327_0167.10
PROXY_AFP_ENG_20070327_0167.11
PROXY_AFP_ENG_20070327_0167.12
PROXY_AFP_ENG_20070327_0167.13
PROXY_AFP_ENG_20070327_0167.14
PROXY_AFP_ENG_20070327_0167.15
PROXY_AFP_ENG_20040508_0150.1
PROXY_AFP_ENG_20040508_0150.2
PROXY_AFP_ENG_20040508_0150.3
PROXY_AFP_ENG_20040508_0150.4
PROXY_AFP_ENG_20040508_0150.5
PROXY_AFP_ENG_20040508_0150.6
PROXY_AFP_ENG_20040508_0150.7
PROXY_AFP_ENG_20040508_0150.8
PROXY_AFP_ENG_20040508_0150.9
PROXY_AFP_ENG_20040508_0150.10
PROXY_AFP_ENG_20040508_0150.11
PROXY_AFP_ENG_20040508_0150.12
PROXY_AFP_ENG_20040508_0150.13
PROXY_AFP_ENG_20040508_0150.14
PROXY_AFP_ENG_20040508_0150.15
PROXY_AFP_ENG_20040508_0150.16
PROXY_AFP_ENG_20040508_0150.17
PROXY_AFP_ENG_20040508_0150.18
PROXY_AFP_ENG_20040508_0150.19
PROXY_AFP_ENG_20040508_0150.20
PROXY_AFP_ENG_20040508_0150.21
PROXY_AFP_ENG_20040508_0150.22
PROXY_AFP_ENG_20040508_0150.23
PROXY_AFP_ENG_20040508_0150.24
PROXY_AFP_ENG_20040508_0150.25
PROXY_AFP_ENG_20040508_0150.26
PROXY_AFP_ENG_20070818_0297.1
PROXY_AFP_ENG_20070818_0297.2
PROXY_AFP_ENG_20070818_0297.3
PROXY_AFP_ENG_20070818_0297.4
PROXY_AFP_ENG_20070818_0297.5
PROXY_AFP_ENG_20070818_0297.6
PROXY_AFP_ENG_20070818_0297.7
PROXY_AFP_ENG_20070818_0297.8
PROXY_AFP_ENG_20070818_0297.9
PROXY_AFP_ENG_20070818_0297.10
PROXY_AFP_ENG_20070818_0297.11
PROXY_AFP_ENG_20070818_0297.12
PROXY_AFP_ENG_20070818_0297.13
PROXY_AFP_ENG_20070818_0297.14
PROXY_AFP_ENG_20070818_0297.15
PROXY_AFP_ENG_20070818_0297.16
PROXY_AFP_ENG_20070818_0297.17
PROXY_AFP_ENG_20070818_0297.18
PROXY_AFP_ENG_20070818_0297.19
PROXY_AFP_ENG_20070818_0297.20
PROXY_AFP_ENG_20070818_0297.21
PROXY_AFP_ENG_20070818_0297.22
PROXY_AFP_ENG_20070818_0297.23
PROXY_AFP_ENG_20070818_0297.24
PROXY_AFP_ENG_20070818_0297.25
PROXY_AFP_ENG_20070818_0297.26
PROXY_AFP_ENG_20070818_0297.27
PROXY_AFP_ENG_20070818_0297.28
PROXY_AFP_ENG_20070818_0297.29
PROXY_AFP_ENG_20070818_0297.30
PROXY_AFP_ENG_20070818_0297.31
PROXY_AFP_ENG_20070818_0297.32
PROXY_AFP_ENG_20070818_0297.33
PROXY_AFP_ENG_20070818_0297.34
PROXY_AFP_ENG_20070818_0297.35
PROXY_AFP_ENG_20070818_0297.36
PROXY_AFP_ENG_20070818_0297.37
PROXY_AFP_ENG_20070818_0297.38
PROXY_AFP_ENG_20070818_0297.39
PROXY_AFP_ENG_20070818_0297.40
PROXY_AFP_ENG_20070818_0297.41
PROXY_AFP_ENG_20070818_0297.42
PROXY_AFP_ENG_20070818_0297.43
PROXY_AFP_ENG_20070818_0297.44
PROXY_AFP_ENG_20070818_0297.45
PROXY_AFP_ENG_20070818_0297.46
PROXY_AFP_ENG_20070818_0297.47
PROXY_AFP_ENG_20070818_0297.48
PROXY_AFP_ENG_20070818_0297.49
PROXY_AFP_ENG_20070818_0297.50
PROXY_AFP_ENG_20070818_0297.51
PROXY_AFP_ENG_20070818_0297.52
PROXY_AFP_ENG_20070818_0297.53
PROXY_AFP_ENG_20070818_0297.54
PROXY_AFP_ENG_20070818_0297.55
PROXY_AFP_ENG_20070818_0297.56
PROXY_AFP_ENG_20070818_0297.57
PROXY_AFP_ENG_20070818_0297.58
PROXY_AFP_ENG_20070818_0297.59
PROXY_AFP_ENG_20070818_0297.60
PROXY_AFP_ENG_20070818_0297.61
PROXY_AFP_ENG_20070818_0297.62
PROXY_AFP_ENG_20070818_0297.63
PROXY_AFP_ENG_20020117_0270.1
PROXY_AFP_ENG_20020117_0270.2
PROXY_AFP_ENG_20020117_0270.3
PROXY_AFP_ENG_20020117_0270.4
PROXY_AFP_ENG_20020117_0270.5
PROXY_AFP_ENG_20020117_0270.6
PROXY_AFP_ENG_20020117_0270.7
PROXY_AFP_ENG_20020117_0270.8
PROXY_AFP_ENG_20020117_0270.9
PROXY_AFP_ENG_20020117_0270.10
PROXY_AFP_ENG_20020117_0270.11
PROXY_AFP_ENG_20020117_0270.12
PROXY_AFP_ENG_20020117_0270.13
PROXY_AFP_ENG_20020117_0270.14
PROXY_AFP_ENG_20020117_0270.15
PROXY_AFP_ENG_20020117_0270.16
PROXY_AFP_ENG_20020117_0270.17
PROXY_AFP_ENG_20020117_0270.18
PROXY_AFP_ENG_20020117_0270.19
PROXY_AFP_ENG_20020117_0270.20
PROXY_AFP_ENG_20070504_0296.1
PROXY_AFP_ENG_20070504_0296.2
PROXY_AFP_ENG_20070504_0296.3
PROXY_AFP_ENG_20070504_0296.4
PROXY_AFP_ENG_20070504_0296.5
PROXY_AFP_ENG_20070504_0296.6
PROXY_AFP_ENG_20070504_0296.7
PROXY_AFP_ENG_20070504_0296.8
PROXY_AFP_ENG_20070504_0296.9
PROXY_AFP_ENG_20070504_0296.10
PROXY_AFP_ENG_20070504_0296.11
PROXY_AFP_ENG_20070504_0296.12
PROXY_AFP_ENG_20070504_0296.13
PROXY_AFP_ENG_20070504_0296.14
PROXY_AFP_ENG_20070504_0296.15
PROXY_AFP_ENG_20070504_0296.16
PROXY_AFP_ENG_20070504_0296.17
PROXY_APW_ENG_20020111_0088.1
PROXY_APW_ENG_20020111_0088.2
PROXY_APW_ENG_20020111_0088.3
PROXY_APW_ENG_20020111_0088.4
PROXY_APW_ENG_20020111_0088.5
PROXY_APW_ENG_20020111_0088.6
PROXY_APW_ENG_20020111_0088.7
PROXY_APW_ENG_20020111_0088.8
PROXY_APW_ENG_20020111_0088.9
PROXY_APW_ENG_20020111_0088.10
PROXY_APW_ENG_20020111_0088.11
PROXY_APW_ENG_20020111_0088.12
PROXY_APW_ENG_20020111_0088.13
PROXY_APW_ENG_20020111_0088.14
PROXY_AFP_ENG_20080423_0427.1
PROXY_AFP_ENG_20080423_0427.2
PROXY_AFP_ENG_20080423_0427.3
PROXY_AFP_ENG_20080423_0427.4
PROXY_AFP_ENG_20080423_0427.5
PROXY_AFP_ENG_20080423_0427.6
PROXY_AFP_ENG_20080423_0427.7
PROXY_AFP_ENG_20080423_0427.8
PROXY_AFP_ENG_20080423_0427.9
PROXY_AFP_ENG_20080423_0427.10
PROXY_AFP_ENG_20080423_0427.11
PROXY_AFP_ENG_20080423_0427.12
PROXY_AFP_ENG_20080423_0427.13
PROXY_AFP_ENG_20080423_0427.14
PROXY_AFP_ENG_20080423_0427.15
PROXY_AFP_ENG_20080423_0427.16
PROXY_AFP_ENG_20080423_0427.17
PROXY_AFP_ENG_20080423_0427.18
PROXY_AFP_ENG_20080423_0427.19
PROXY_AFP_ENG_20080423_0427.20
PROXY_AFP_ENG_20080423_0427.21
PROXY_AFP_ENG_20081029_0096.1
PROXY_AFP_ENG_20081029_0096.2
PROXY_AFP_ENG_20081029_0096.3
PROXY_AFP_ENG_20081029_0096.4
PROXY_AFP_ENG_20081029_0096.5
PROXY_AFP_ENG_20081029_0096.6
PROXY_AFP_ENG_20081029_0096.7
PROXY_AFP_ENG_20081029_0096.8
PROXY_AFP_ENG_20081029_0096.9
PROXY_AFP_ENG_20081029_0096.10
PROXY_AFP_ENG_20081029_0096.11
PROXY_AFP_ENG_20081029_0096.12
PROXY_AFP_ENG_20081029_0096.13
PROXY_APW_ENG_20080227_0458.1
PROXY_APW_ENG_20080227_0458.2
PROXY_APW_ENG_20080227_0458.3
PROXY_APW_ENG_20080227_0458.4
PROXY_APW_ENG_20080227_0458.5
PROXY_APW_ENG_20080227_0458.6
PROXY_APW_ENG_20080227_0458.7
PROXY_APW_ENG_20080227_0458.8
PROXY_APW_ENG_20080227_0458.9
PROXY_APW_ENG_20080227_0458.10
PROXY_APW_ENG_20080227_0458.11
PROXY_APW_ENG_20080227_0458.12
PROXY_APW_ENG_20080227_0458.13
PROXY_APW_ENG_20080227_0458.14
PROXY_APW_ENG_20080227_0458.15
PROXY_APW_ENG_20080227_0458.16
PROXY_AFP_ENG_20051018_0064.1
PROXY_AFP_ENG_20051018_0064.2
PROXY_AFP_ENG_20051018_0064.3
PROXY_AFP_ENG_20051018_0064.4
PROXY_AFP_ENG_20051018_0064.5
PROXY_AFP_ENG_20051018_0064.6
PROXY_AFP_ENG_20051018_0064.7
PROXY_AFP_ENG_20051018_0064.8
PROXY_AFP_ENG_20051018_0064.9
PROXY_AFP_ENG_20051018_0064.10
PROXY_AFP_ENG_20051018_0064.11
PROXY_AFP_ENG_20051018_0064.12
PROXY_AFP_ENG_20051018_0064.13
PROXY_AFP_ENG_20051018_0064.14
PROXY_AFP_ENG_20051018_0064.15
PROXY_AFP_ENG_20051018_0064.16
PROXY_AFP_ENG_20051018_0064.17
PROXY_AFP_ENG_20051018_0064.18
PROXY_AFP_ENG_20051018_0064.19
PROXY_AFP_ENG_20051018_0064.20
PROXY_AFP_ENG_20051018_0064.21
PROXY_AFP_ENG_20051018_0064.22
PROXY_AFP_ENG_20051018_0064.23
PROXY_AFP_ENG_20051018_0064.24
PROXY_AFP_ENG_20051018_0064.25
PROXY_AFP_ENG_20051018_0064.26
PROXY_AFP_ENG_20051018_0064.27
PROXY_AFP_ENG_20051018_0064.28
PROXY_AFP_ENG_20051018_0064.29
PROXY_AFP_ENG_20051018_0064.30
PROXY_AFP_ENG_20051018_0064.31
PROXY_AFP_ENG_20051018_0064.32
PROXY_AFP_ENG_20051018_0064.33
PROXY_AFP_ENG_20051018_0064.34
PROXY_AFP_ENG_20051018_0064.35
PROXY_AFP_ENG_20051018_0064.36
PROXY_AFP_ENG_20051018_0064.37
PROXY_AFP_ENG_20051018_0064.38
PROXY_AFP_ENG_20051018_0064.39
PROXY_AFP_ENG_20051018_0064.40
PROXY_AFP_ENG_20051018_0064.41
PROXY_AFP_ENG_20051018_0064.42
PROXY_AFP_ENG_20051018_0064.43
PROXY_AFP_ENG_20051018_0064.44
PROXY_AFP_ENG_20071111_0386.1
PROXY_AFP_ENG_20071111_0386.2
PROXY_AFP_ENG_20071111_0386.3
PROXY_AFP_ENG_20071111_0386.4
PROXY_AFP_ENG_20071111_0386.5
PROXY_AFP_ENG_20071111_0386.6
PROXY_AFP_ENG_20071111_0386.7
PROXY_AFP_ENG_20071111_0386.8
PROXY_AFP_ENG_20071111_0386.9
PROXY_AFP_ENG_20071111_0386.10
PROXY_AFP_ENG_20071111_0386.11
PROXY_AFP_ENG_20071111_0386.12
PROXY_AFP_ENG_20071111_0386.13
PROXY_AFP_ENG_20071111_0386.14
PROXY_AFP_ENG_20071111_0386.15
PROXY_AFP_ENG_20071111_0386.16
PROXY_AFP_ENG_20071111_0386.17
PROXY_AFP_ENG_20071111_0386.18
PROXY_AFP_ENG_20071111_0386.19
PROXY_AFP_ENG_20031210_0724.1
PROXY_AFP_ENG_20031210_0724.2
PROXY_AFP_ENG_20031210_0724.3
PROXY_AFP_ENG_20031210_0724.4
PROXY_AFP_ENG_20031210_0724.5
PROXY_AFP_ENG_20031210_0724.6
PROXY_AFP_ENG_20031210_0724.7
PROXY_AFP_ENG_20031210_0724.8
PROXY_AFP_ENG_20031210_0724.9
PROXY_AFP_ENG_20031210_0724.10
PROXY_AFP_ENG_20070715_0100.1
PROXY_AFP_ENG_20070715_0100.2
PROXY_AFP_ENG_20070715_0100.3
PROXY_AFP_ENG_20070715_0100.4
PROXY_AFP_ENG_20070715_0100.5
PROXY_AFP_ENG_20070715_0100.6
PROXY_AFP_ENG_20070715_0100.7
PROXY_AFP_ENG_20070715_0100.8
PROXY_AFP_ENG_20070715_0100.9
PROXY_AFP_ENG_20070715_0100.10
PROXY_AFP_ENG_20070715_0100.11
PROXY_AFP_ENG_20070715_0100.12
PROXY_AFP_ENG_20070715_0100.13
PROXY_AFP_ENG_20070715_0100.14
PROXY_AFP_ENG_20070715_0100.15
PROXY_AFP_ENG_20070715_0100.16
PROXY_AFP_ENG_20070715_0100.17
PROXY_AFP_ENG_20070715_0100.18
PROXY_AFP_ENG_20070715_0100.19
PROXY_AFP_ENG_20070715_0100.20
PROXY_AFP_ENG_20070716_0508.1
PROXY_AFP_ENG_20070716_0508.2
PROXY_AFP_ENG_20070716_0508.3
PROXY_AFP_ENG_20070716_0508.4
PROXY_AFP_ENG_20070716_0508.5
PROXY_AFP_ENG_20070716_0508.6
PROXY_AFP_ENG_20070716_0508.7
PROXY_AFP_ENG_20070716_0508.8
PROXY_AFP_ENG_20070716_0508.9
PROXY_AFP_ENG_20070716_0508.10
PROXY_AFP_ENG_20070716_0508.11
PROXY_AFP_ENG_20070716_0508.12
PROXY_AFP_ENG_20070716_0508.13
PROXY_AFP_ENG_20070716_0508.14
PROXY_AFP_ENG_20070716_0508.15
PROXY_AFP_ENG_20070716_0508.16
PROXY_AFP_ENG_20070716_0508.17
PROXY_AFP_ENG_20070716_0508.18
PROXY_AFP_ENG_20070716_0508.19
PROXY_AFP_ENG_20070716_0508.20
PROXY_AFP_ENG_20070716_0508.21
PROXY_AFP_ENG_20070716_0508.22
PROXY_AFP_ENG_20070716_0508.23
PROXY_AFP_ENG_20070716_0508.24
PROXY_AFP_ENG_20070716_0508.25
PROXY_AFP_ENG_20070716_0508.26
PROXY_AFP_ENG_20070716_0508.27
PROXY_AFP_ENG_20070716_0508.28
PROXY_AFP_ENG_20070716_0508.29
PROXY_AFP_ENG_20070716_0508.30
PROXY_AFP_ENG_20070716_0508.31
PROXY_AFP_ENG_20070716_0508.32
PROXY_AFP_ENG_20020422_0296.1
PROXY_AFP_ENG_20020422_0296.2
PROXY_AFP_ENG_20020422_0296.3
PROXY_AFP_ENG_20020422_0296.4
PROXY_AFP_ENG_20020422_0296.5
PROXY_AFP_ENG_20020422_0296.6
PROXY_AFP_ENG_20020422_0296.7
PROXY_AFP_ENG_20020422_0296.8
PROXY_AFP_ENG_20020422_0296.9
PROXY_AFP_ENG_20020422_0296.10
PROXY_AFP_ENG_20020422_0296.11
PROXY_AFP_ENG_20020422_0296.12
PROXY_AFP_ENG_20020422_0296.13
PROXY_AFP_ENG_20020422_0296.14
PROXY_AFP_ENG_20020422_0296.15
PROXY_AFP_ENG_20020422_0296.16
PROXY_AFP_ENG_20020422_0296.17
PROXY_AFP_ENG_20020422_0296.18
PROXY_AFP_ENG_20020422_0296.19
PROXY_AFP_ENG_20020422_0296.20
PROXY_AFP_ENG_20020422_0296.21
PROXY_AFP_ENG_20020422_0296.22
PROXY_AFP_ENG_20020422_0296.23
PROXY_AFP_ENG_20020105_0162.1
PROXY_AFP_ENG_20020105_0162.2
PROXY_AFP_ENG_20020105_0162.3
PROXY_AFP_ENG_20020105_0162.4
PROXY_AFP_ENG_20020105_0162.5
PROXY_AFP_ENG_20020105_0162.6
PROXY_AFP_ENG_20020105_0162.7
PROXY_AFP_ENG_20020105_0162.8
PROXY_AFP_ENG_20020105_0162.9
PROXY_AFP_ENG_20020105_0162.10
PROXY_AFP_ENG_20020105_0162.11
PROXY_AFP_ENG_20020105_0162.12
PROXY_AFP_ENG_20020105_0162.13
PROXY_AFP_ENG_20020105_0162.14
PROXY_AFP_ENG_20020105_0162.15
PROXY_APW_ENG_20080319_0386.1
PROXY_APW_ENG_20080319_0386.2
PROXY_APW_ENG_20080319_0386.3
PROXY_APW_ENG_20080319_0386.4
PROXY_APW_ENG_20080319_0386.5
PROXY_APW_ENG_20080319_0386.6
PROXY_APW_ENG_20080319_0386.7
PROXY_APW_ENG_20080319_0386.8
PROXY_APW_ENG_20080319_0386.9
PROXY_APW_ENG_20080319_0386.10
PROXY_APW_ENG_20080319_0386.11
PROXY_APW_ENG_20080319_0386.12
PROXY_APW_ENG_20080319_0386.13
PROXY_APW_ENG_20080319_0386.14
PROXY_AFP_ENG_20020128_0449.1
PROXY_AFP_ENG_20020128_0449.2
PROXY_AFP_ENG_20020128_0449.3
PROXY_AFP_ENG_20020128_0449.4
PROXY_AFP_ENG_20020128_0449.5
PROXY_AFP_ENG_20020128_0449.6
PROXY_AFP_ENG_20020128_0449.7
PROXY_AFP_ENG_20020128_0449.8
PROXY_AFP_ENG_20020128_0449.9
PROXY_AFP_ENG_20020128_0449.10
PROXY_AFP_ENG_20020128_0449.11
PROXY_AFP_ENG_20020128_0449.12
PROXY_AFP_ENG_20020128_0449.13
PROXY_AFP_ENG_20020128_0449.14
PROXY_AFP_ENG_20020128_0449.15
PROXY_AFP_ENG_20020128_0449.16
PROXY_AFP_ENG_20020128_0449.17
PROXY_AFP_ENG_20020128_0449.18
PROXY_AFP_ENG_20020128_0449.19
PROXY_AFP_ENG_20020128_0449.20
PROXY_AFP_ENG_20020128_0449.21
PROXY_AFP_ENG_20020128_0449.22
PROXY_AFP_ENG_20020128_0449.23
PROXY_AFP_ENG_20020128_0449.24
PROXY_AFP_ENG_20020128_0449.25
PROXY_AFP_ENG_20020128_0449.26
PROXY_AFP_ENG_20020128_0449.27
PROXY_AFP_ENG_20071130_0593.1
PROXY_AFP_ENG_20071130_0593.2
PROXY_AFP_ENG_20071130_0593.3
PROXY_AFP_ENG_20071130_0593.4
PROXY_AFP_ENG_20071130_0593.5
PROXY_AFP_ENG_20071130_0593.6
PROXY_AFP_ENG_20071130_0593.7
PROXY_AFP_ENG_20071130_0593.8
PROXY_AFP_ENG_20071130_0593.9
PROXY_AFP_ENG_20071130_0593.10
PROXY_AFP_ENG_20071130_0593.11
PROXY_AFP_ENG_20071130_0593.12
PROXY_AFP_ENG_20071130_0593.13
PROXY_AFP_ENG_20040209_0175.1
PROXY_AFP_ENG_20040209_0175.2
PROXY_AFP_ENG_20040209_0175.3
PROXY_AFP_ENG_20040209_0175.4
PROXY_AFP_ENG_20040209_0175.5
PROXY_AFP_ENG_20040209_0175.6
PROXY_AFP_ENG_20040209_0175.7
PROXY_AFP_ENG_20040209_0175.8
PROXY_AFP_ENG_20040209_0175.9
PROXY_AFP_ENG_20040209_0175.10
PROXY_AFP_ENG_20040209_0175.11
PROXY_AFP_ENG_20040209_0175.12
PROXY_AFP_ENG_20040209_0175.13
PROXY_AFP_ENG_20040209_0175.14
PROXY_AFP_ENG_20040209_0175.15
PROXY_AFP_ENG_20040209_0175.16
PROXY_AFP_ENG_20040209_0175.17
PROXY_AFP_ENG_20040209_0175.18
PROXY_AFP_ENG_20040209_0175.19
PROXY_AFP_ENG_20040209_0175.20
PROXY_AFP_ENG_20040720_0035.1
PROXY_AFP_ENG_20040720_0035.2
PROXY_AFP_ENG_20040720_0035.3
PROXY_AFP_ENG_20040720_0035.4
PROXY_AFP_ENG_20040720_0035.5
PROXY_AFP_ENG_20040720_0035.6
PROXY_AFP_ENG_20040720_0035.7
PROXY_AFP_ENG_20040720_0035.8
PROXY_AFP_ENG_20040720_0035.9
PROXY_AFP_ENG_20040720_0035.10
PROXY_AFP_ENG_20040720_0035.11
PROXY_AFP_ENG_20040720_0035.12
PROXY_AFP_ENG_20040720_0035.13
PROXY_AFP_ENG_20040720_0035.14
PROXY_AFP_ENG_20040720_0035.15
PROXY_AFP_ENG_20040720_0035.16
PROXY_AFP_ENG_20040720_0035.17
PROXY_AFP_ENG_20040720_0035.18
PROXY_AFP_ENG_20040720_0035.19
PROXY_AFP_ENG_20040720_0035.20
PROXY_AFP_ENG_20040720_0035.21
PROXY_AFP_ENG_20040720_0035.22
PROXY_AFP_ENG_20040720_0035.23
PROXY_AFP_ENG_20040720_0035.24
PROXY_AFP_ENG_20040720_0035.25
PROXY_AFP_ENG_20040720_0035.26
PROXY_AFP_ENG_20040720_0035.27
PROXY_AFP_ENG_20050718_0646.1
PROXY_AFP_ENG_20050718_0646.2
PROXY_AFP_ENG_20050718_0646.3
PROXY_AFP_ENG_20050718_0646.4
PROXY_AFP_ENG_20050718_0646.5
PROXY_AFP_ENG_20050718_0646.6
PROXY_AFP_ENG_20050718_0646.7
PROXY_AFP_ENG_20050718_0646.8
PROXY_AFP_ENG_20050718_0646.9
PROXY_AFP_ENG_20050718_0646.10
PROXY_AFP_ENG_20050718_0646.11
PROXY_AFP_ENG_20050718_0646.12
PROXY_AFP_ENG_20050718_0646.13
PROXY_AFP_ENG_20050718_0646.14
PROXY_AFP_ENG_20050718_0646.15
PROXY_AFP_ENG_20050718_0646.16
PROXY_AFP_ENG_20050718_0646.17
PROXY_AFP_ENG_20050718_0646.18
PROXY_AFP_ENG_20050718_0646.19
PROXY_AFP_ENG_20050718_0646.20
PROXY_AFP_ENG_20050718_0646.21
PROXY_AFP_ENG_20050718_0646.22
PROXY_AFP_ENG_20050718_0646.23
PROXY_AFP_ENG_20050718_0646.24
PROXY_AFP_ENG_20050718_0646.25
PROXY_AFP_ENG_20050718_0646.26
PROXY_AFP_ENG_20050718_0646.27
PROXY_AFP_ENG_20050718_0646.28
PROXY_APW_ENG_20030428_0186.1
PROXY_APW_ENG_20030428_0186.2
PROXY_APW_ENG_20030428_0186.3
PROXY_APW_ENG_20030428_0186.4
PROXY_APW_ENG_20030428_0186.5
PROXY_APW_ENG_20030428_0186.6
PROXY_APW_ENG_20030428_0186.7
PROXY_APW_ENG_20030428_0186.8
PROXY_APW_ENG_20030428_0186.9
PROXY_APW_ENG_20030428_0186.10
PROXY_APW_ENG_20030428_0186.11
PROXY_APW_ENG_20030428_0186.12
PROXY_APW_ENG_20030428_0186.13
PROXY_APW_ENG_20030428_0186.14
PROXY_APW_ENG_20030428_0186.15
PROXY_APW_ENG_20030428_0186.16
PROXY_APW_ENG_20030428_0186.17
PROXY_APW_ENG_20030428_0186.18
PROXY_APW_ENG_20030428_0186.19
PROXY_APW_ENG_20030428_0186.20
PROXY_APW_ENG_20030428_0186.21
PROXY_APW_ENG_20080128_1199.1
PROXY_APW_ENG_20080128_1199.2
PROXY_APW_ENG_20080128_1199.3
PROXY_APW_ENG_20080128_1199.4
PROXY_APW_ENG_20080128_1199.5
PROXY_APW_ENG_20080128_1199.6
PROXY_APW_ENG_20080128_1199.7
PROXY_APW_ENG_20080128_1199.8
PROXY_APW_ENG_20080128_1199.9
PROXY_APW_ENG_20080128_1199.10
PROXY_APW_ENG_20080128_1199.11
PROXY_APW_ENG_20080128_1199.12
PROXY_APW_ENG_20080128_1199.13
PROXY_APW_ENG_20080128_1199.14
PROXY_APW_ENG_20080128_1199.15
PROXY_APW_ENG_20080508_0562.1
PROXY_APW_ENG_20080508_0562.2
PROXY_APW_ENG_20080508_0562.3
PROXY_APW_ENG_20080508_0562.4
PROXY_APW_ENG_20080508_0562.5
PROXY_APW_ENG_20080508_0562.6
PROXY_APW_ENG_20080508_0562.7
PROXY_APW_ENG_20080508_0562.8
PROXY_APW_ENG_20080508_0562.9
PROXY_APW_ENG_20080508_0562.10
PROXY_APW_ENG_20080508_0562.11
PROXY_APW_ENG_20080508_0562.12
PROXY_APW_ENG_20080508_0562.13
PROXY_APW_ENG_20080508_0562.14
PROXY_APW_ENG_20080508_0562.15
PROXY_APW_ENG_20080508_0562.16
PROXY_APW_ENG_20080508_0562.17
PROXY_APW_ENG_20080508_0562.18
PROXY_APW_ENG_20080508_0562.19
PROXY_APW_ENG_20080508_0562.20
PROXY_APW_ENG_20080508_0562.21
PROXY_APW_ENG_20080508_0562.22
PROXY_APW_ENG_20080508_0562.23
PROXY_APW_ENG_20080508_0562.24
PROXY_APW_ENG_20080508_0562.25
PROXY_AFP_ENG_20071206_0630.1
PROXY_AFP_ENG_20071206_0630.2
PROXY_AFP_ENG_20071206_0630.3
PROXY_AFP_ENG_20071206_0630.4
PROXY_AFP_ENG_20071206_0630.5
PROXY_AFP_ENG_20071206_0630.6
PROXY_AFP_ENG_20071206_0630.7
PROXY_AFP_ENG_20071206_0630.8
PROXY_AFP_ENG_20071206_0630.9
PROXY_AFP_ENG_20071206_0630.10
PROXY_AFP_ENG_20071206_0630.11
PROXY_AFP_ENG_20071206_0630.12
PROXY_AFP_ENG_20071206_0630.13
PROXY_AFP_ENG_20071206_0630.14
PROXY_AFP_ENG_20080303_0316.1
PROXY_AFP_ENG_20080303_0316.2
PROXY_AFP_ENG_20080303_0316.3
PROXY_AFP_ENG_20080303_0316.4
PROXY_AFP_ENG_20080303_0316.5
PROXY_AFP_ENG_20080303_0316.6
PROXY_AFP_ENG_20080303_0316.7
PROXY_AFP_ENG_20080303_0316.8
PROXY_AFP_ENG_20080303_0316.9
PROXY_AFP_ENG_20080303_0316.10
PROXY_AFP_ENG_20080303_0316.11
PROXY_AFP_ENG_20080303_0316.12
PROXY_AFP_ENG_20080303_0316.13
PROXY_AFP_ENG_20080303_0316.14
PROXY_AFP_ENG_20080303_0316.15
