# ::id nw.wsj_0001.1
# ::alignments 0-1.1.1.1 1-1.1.1.2 3-1.1.2.1 4-1.1.2.2 5-1.1.2.r 8-1 10-1.2 11-1.2.1 13-1.2.1.2.1 13-1.2.1.2.1.1 13-1.2.1.2.1.1.r 14-1.2.1.2 15-1.3.1 15-1.3.1.r 16-1.3.2

# ::id nw.wsj_0001.2
# ::alignments 0-1.1.1.1 1-1.1.1.2 2-1 3-1.3 4-1 5-1.2.1.1 6-1.2.1.2 9-1.2.2.1.1 10-1.2.3 11-1.2

# ::id nw.wsj_0002.1
# ::alignments 0-1.1.1.1 1-1.1.1.2 3-1.1.2.1 4-1.1.2.2 5-1.1.2.r 7-1.1.3.3 8-1.1.3.2 9-1.1.3 10-1.1.3.1.1.1 11-1.1.3.1.1.2 12-1.1.3.1.1.3 13-1.1.3.1.1.4 16-1 18-1.2.1 18-1.2.1.1 18-1.2.1.1.r 19-1.2 20-1.2.2 22-1.1.3.1.2.1.1 23-1.1.3.1.3 24-1.1.3.1

# ::id nw.wsj_0003.1
# ::alignments 1-1.2.1.1 2-1.2.1.1.r 3-1.2.1 4-1.2.1.2.2 5-1.2.1.2 7-1.2.1.2.1 8-1.2.1.2.1.1.2.1.1 9-1.2.1.2.1.1.2 10-1.2.1.2.1.1 10-1.2.1.2.1.1.1 10-1.2.1.2.1.1.1.r 12-1.2 14-1.2.2 15-1.2.2.1 16-1.2.2.1.1.r 17-1.2.2.1.1.1.1.1.1 18-1.2.2.1.1.1 18-1.2.2.1.1.1.1 18-1.2.2.1.1.1.1.r 19-1.2.2.1.1 23-1.2.2.1.1.2 23-1.2.2.1.1.2.1 23-1.2.2.1.1.2.1.r 24-1.2.2.1.1.2.2 25-1.2.2.1.1.2.2.1.r 26-1.2.2.1.1.2.2.1 27-1.2.2.1.1.2.2.2.2 28-1.2.2.1.1.2.2.2.2 29-1.2.2.1.1.2.2.2.2.1.1 30-1.2.2.1.1.2.2.2.2.1.2 31-1.2.2.1.1.2.2.2 31-1.2.2.1.1.2.2.2.1 31-1.2.2.1.1.2.2.2.1.r 33-1.1 33-1.1.1 33-1.1.1.r 34-1

# ::id nw.wsj_0003.2
# ::alignments 1-1.2.1.2.1.1 2-1.2.1.2.1 4-1.2.1.2 6-1.2.1.2.r 7-1.2.1.1 7-1.2.1.1.1 7-1.2.1.1.1.r 8-1.2.1 9-1.2.1.3.r 10-1.2.1.3.1 11-1.2.1.3 13-1.2.1.3.2 15-1.2.2.r 16-1.2.2.1.2.1 17-1.2.2.1.2 18-1.2.2.1 19-1.2.2.1.1.r 20-1.2.2.1.1 21-1.2.2 22-1.2.2.2 24-1.2.2.2.1 25-1.2.2.2.1 26-1.2.2.2.1.1.1.1 26-1.2.2.2.1.1.1.1.1 26-1.2.2.2.1.1.1.1.1.1 26-1.2.2.2.1.1.1.1.1.1.r 26-1.2.2.2.1.1.1.1.1.2 26-1.2.2.2.1.1.1.1.1.2.r 26-1.2.2.2.1.1.1.1.1.r 27-1.2.2.2.1.1 27-1.2.2.2.1.1.1 27-1.2.2.2.1.1.1.r 29-1.1 29-1.1.1 29-1.1.1.r 30-1

# ::id nw.wsj_0003.3
# ::alignments 0-1.1.1.1 1-1.1.1.2 4-1.1 5-1.1.2.r 6-1.1.2.2.1.1.1 7-1.1.2.2.1.1.2 7-1.1.2.2 8-1.1.2.1.1 9-1.1.2.1.2 11-1.1.3 12-1.1.3.1.1.1 13-1.1.3.1 15-1 16-1.2 17-1.2.2 18-1.2.3.r 19-1.2.3.4 19-1.2.3.4.r 20-1.2.3.1.1 21-1.2.3.3 22-1.2.3 22-1.2.3.2 22-1.2.3.2.r 23-1.3.r 24-1.3.1

# ::id nw.wsj_0003.4
# ::alignments 0-1.3.r 1-1.3.1.2 2-1.3.1 2-1.3.1.1 2-1.3.1.1.r 4-1.3 5-1.3.2.2 6-1.3.2.2 7-1.3.2.2.1.1 8-1.3.2.2.1.2 9-1.3.2 9-1.3.2.1 9-1.3.2.1.r 12-1.1.1.1 12-1.1.1.1.1 12-1.1.1.1.1.r 13-1.1 13-1.1.1 13-1.1.1.r 14-1 15-1.2.r 16-1.2.2 17-1.2.2.r 18-1.2.1.1 19-1.2.1.2 20-1.2.1.3 21-1.2.1.4 22-1.2.1.5 25-1.2.3 26-1.2.3.1.3 28-1.2.3.1 29-1.2.3.1.1.1 30-1.2.3.1.1 31-1.2.3.1.2.r 33-1.2.3.1.2

# ::id nw.wsj_0003.5
# ::alignments 1-1.1.1.1.1.1 2-1.1.1.2 3-1 5-1.2.1 6-1.2.1.r 8-1.2.2 9-1.2

# ::id nw.wsj_0003.6
# ::alignments 0-1.1 2-1 3-1.2.r 4-1.2.2 4-1.2.2.1 4-1.2.2.1.1 4-1.2.2.1.1.r 4-1.2.2.1.2 4-1.2.2.1.2.r 4-1.2.2.1.r 5-1.2 5-1.2.1 5-1.2.1.r 6-1.2.3 7-1.2.3.1.1 8-1.2.3.1 9-1.2.3.1.2.r 10-1.2.3.1.2.1 11-1.2.3.1.2 12-1.2.3.1.2.2.1 13-1.2.3.1.2.2.2 14-1.2.3.1.2.2

# ::id nw.wsj_0003.7
# ::alignments 2-1.1 2-1.1.r 3-1 4-1.3.r 5-1.3.1.1 5-1.3.1.1.r 6-1.3 6-1.3.1 6-1.3.1.r 7-1.2

# ::id nw.wsj_0003.8
# ::alignments 0-1.3 0-1.3.r 1-1.1.1.1.1 2-1.3 2-1.3.r 4-1.1.2 4-1.1.2.1 4-1.1.2.1.r 6-1.1.2.2 8-1.1.2.2.1 8-1.1.2.2.1.1 8-1.1.2.2.1.1.r 9-1 10-1 11-1.2.r 13-1.2 14-1.2.1.r 15-1.2.1 15-1.2.1.1 15-1.2.1.1.r 16-1.2.1.1.1.r 18-1.2.1.1.1.1.1 19-1.2.1.1.1

# ::id nw.wsj_0003.9
# ::alignments 0-1.2.2 1-1.2 2-1.2.1 2-1.2.1.r 3-1.2.3.2 4-1.2.3 5-1.2.3.1.r 6-1.2.3.1.1 6-1.2.3.1.1.r 7-1.2.3.1.2 7-1.2.3.1.2.1 7-1.2.3.1.2.1.r 8-1.2.3.1 9-1.2.3.1 10-1.2.3.1 12-1 13-1.1.1.1 14-1.1.1.2 15-1.1.1.3 16-1.1.2 17-1.1.2.1.2.1.1 18-1.1.2.1.2.r 19-1.1.2.1.1.1 19-1.1.2.1.1.1 19-1.1.2.1.1.1 20-1.1.2.1.1.2 21-1.1.2.1.1.3

# ::id nw.wsj_0003.10
# ::alignments 0-1.1 1-1.1.1.1 2-1 4-1.2 5-1.2.1.r 6-1.2.1 6-1.2.1.1 6-1.2.1.1.r 7-1.2.2.r 9-1.2.2.1.1.1 10-1.2.2.1.1.2 11-1.2.2.1 11-1.2.2.1.1.3 12-1.2.2 14-1.2.2.2.1 14-1.2.2.3.1 15-1.2.2.2 15-1.2.2.3 16-1.2.2.2.2.r 16-1.2.2.3.2.r 17-1.2.2.2.2.1.1 18-1.2.2.2.2.1.2 19-1.2.2 20-1.2.2.3.2.1.1 21-1.2.2.3.2.1.2

# ::id nw.wsj_0003.11
# ::alignments 1-1.1.1.1.1.1 2-1.1.1.2 3-1 4-1.2.1.1 6-1.2.1 7-1.2.1.1.1.r 8-1.2.1.1.1.1.1 9-1.2.1.1.1.1 10-1.2.1.1.1 11-1.2.1.2.r 12-1.2.1.2 13-1.2.1.2.1 14-1.2.1.2.3.r 16-1.2.1.2.3 16-1.2.1.2.3.1 16-1.2.1.2.3.1.r 17-1.2.1.2.2.r 19-1.2.1.2.2 20-1.2.1.2.2.1.1 20-1.2.1.2.2.1.1.r 21-1.2 22-1.2.2 23-1.2.2.2.r 25-1.2.2.2.1.1.1 26-1.2.2.2.1.1 27-1.2.2.2.1.1.r 28-1.2.2.2 28-1.2.2.2.1 28-1.2.2.2.1.r 29-1.2.2.3.r 30-1.2.2.3.1

# ::id nw.wsj_0003.12
# ::alignments 0-1.2.2.1.r 1-1.2.2.1.1 2-1.2.2.2.r 3-1.2.2.2.1 5-1.2.1.1 6-1.2.1.1 7-1.2.1.2.1 8-1.2.1 9-1.2.1.3.r 11-1.2.1.3 11-1.2.1.3.1 11-1.2.1.3.1.r 13-1.2 16-1.1 17-1

# ::id nw.wsj_0003.13
# ::alignments 0-1.1.3 1-1.1.3.1.1 2-1.1.3.1 4-1.1.3.1.2 5-1.1.3.1.2.2 5-1.1.3.1.2.2.r 6-1.1.3.1.2.1.r 8-1.1.3.1.2.1 10-1.1.1 12-1 14-1.1.2 15-1.1.2 16-1.1.2.1.1 17-1.1.2.1 19-1.1.2.1.2.1 20-1.1.2.1.2

# ::id nw.wsj_0003.14
# ::alignments 0-1.1.1 1-1.1.2 3-1.1.2.1.1 4-1.1.2.1.3 5-1.1.2.1 5-1.1.2.1.2 5-1.1.2.1.2.r 6-1 7-1.2.1.1 7-1.2.1 8-1.2 10-1.1.3 11-1.1.3.1.1 12-1.1.3.1.2.r 13-1.1.3.1.2.2 14-1.1.3.1.2 15-1.1.3.1.2.1

# ::id nw.wsj_0003.15
# ::alignments 1-1.2.3 2-1.2.3.1.r 3-1.2.3.1.1 4-1.2.3.1 4-1.2.3.1.2 4-1.2.3.1.2.r 5-1.2.3.1.2.1 6-1.2.3.1.2.1.1.1.1 7-1.2.3.1.2.1.1.1 9-1.2.3.1.2.1.1.2.1 10-1.2.3.1.2.1.1.2 11-1.2.3.1.2.1.1 12-1.2.3.1.2.1.1.3 13-1.2.3.r 14-1.2.2.1 15-1.2 15-1.2.2 15-1.2.2.r 16-1.2.1.r 17-1.2.1.1 20-1.1 20-1.1.1 20-1.1.1.r 21-1

# ::id nw.wsj_0003.16
# ::alignments 1-1.2.1 2-1.2 5-1.2.3 6-1.2.2 7-1.2.3.1.r 9-1.2.3.1.2 10-1.2.3.1.2.1 12-1.2.3.1.1 13-1.2.3.1.1.1.1.1 13-1.2.3.1.1.1.1 14-1.2.3.1.1.1 16-1 17-1.1 18-1.1.1.1

# ::id nw.wsj_0003.17
# ::alignments 1-1.2.1.3 2-1.2.1.3.1.r 3-1.2.1.3.1.1.1.1.1 4-1.2.1.3.1.1.1.1 5-1.2.1.3.1 5-1.2.1.3.1.1 5-1.2.1.3.1.1.r 6-1.2.1.3.1.2 8-1.2.1.3.1.2.1 8-1.2.1.3.1.2.1.1 8-1.2.1.3.1.2.1.1.r 9-1.2.1.3.1.2.1.1.1.r 11-1.2.1.3.1.2.1.1.1.2.1.1 12-1.2.1.3.1.2.1.1.1.2.1.2 14-1.2.1.3.1.2.1.1.1.2.2.1.1 16-1.2.1.3.1.2.1.1.1.1 17-1.2.1.3.1.2.1.1.1 18-1.2 20-1.2.1.3.r 22-1.2.1 22-1.2.1.1 22-1.2.1.1.r 23-1.2.1.2.r 24-1.2.1.2.4 25-1.2.1.2.1.1 26-1.2.1.2 26-1.2.1.2.1 26-1.2.1.2.1.r 27-1.2.1.2.2 28-1.2.1.2.3.r 29-1.2.1.2.3.2.1.1 30-1.2.1.2.3.1 31-1.2.1.2.3 33-1.1 34-1

# ::id nw.wsj_0003.18
# ::alignments 1-1.1 5-1.1.1 6-1.1.1.1.r 7-1.1.1.1.1.1 8-1.1.1.1.1.2 9-1.1.1.1.1.3 10-1.1.1.1.1.4 13-1 14-1 15-1.3.r 16-1.3.1.1 18-1.2 20-1.2.2.2 21-1.2.2 21-1.2.2.1 21-1.2.2.1.r

# ::id nw.wsj_0003.19
# ::alignments 1-1.2.1.1 1-1.2.1.1.1 1-1.2.1.1.1.r 2-1.2 4-1.2.1 5-1.2.1.2 7-1.2.1.2.1 8-1.2.1.2.1.1.r 10-1.2.1.2.1.1.1.1.1.1 11-1.2.1.2.1.1 12-1.2.1.2.1.1.1 14-1.2.1.2.1.1.1.2.2 16-1.2.1.2.1.1.1.2 17-1.2.1.2.1.1.1.2.1 18-1.2.1.2.1.1.1.2.1.1 19-1.2.1.2.1.1.1.3.1 20-1.2.1.2.1.1.1.3 20-1.2.1.2.1.1.1.3.r 21-1.2.1.2.1.1.1.3.2.r 23-1.2.1.2.1.1.1.3.2.2.1 24-1.2.1.2.1.1.1.3.2.2.2 25-1.2.1.2.1.1.1.3.2.2.2.r 26-1.2.1.2.1.1.1.3.2.2 28-1.2.1.2.1.1.1.3.2 30-1.2.1.2.1.1.1.3.2.1 31-1.2.1.2.1.1.1.3.2.1.1.r 32-1.2.1.2.1.1.1.3.2.1.1.1.1 33-1.2.1.2.1.1.1.3.2.1.1.1 34-1.2.1.2.1.1.1.3.2.1.1 35-1.2.1.2.1.1.1.3.2.1.1.2.1 36-1.2.1.2.1.1.1.3.2.1.1.2 38-1.1 39-1.1.1.1 40-1

# ::id nw.wsj_0003.20
# ::alignments 1-1.2.1.1.1 3-1.2 4-1.2 6-1.2.2.2.2 7-1.2.2.2.1.1 8-1.2.2.2.1 11-1.2.2.1.1 11-1.2.2.1.1.r 12-1.2.2.1 14-1.2.2.1.2.1 14-1.2.2.1.2.1.1 14-1.2.2.1.2.1.1.r 15-1.2.2.1.2 16-1.2.2.1.2.2.r 17-1.2.2.1.2.2 18-1.2.2.1.2.2.1.r 20-1.2.2.1.2.2.1.1 22-1.2.2.1.2.2.1.2.1 22-1.2.2.1.2.2.1.2 23-1.2.2.1.2.2.1 24-1.2.2.1.2.2.1.4.r 25-1.2.2.1.2.2.1.4.r 26-1.2.2.1.2.2.1.4 29-1.2.2.1.2.2.1.3 30-1.2.2.1.2.2.1.3.1.r 31-1.2.2.1.2.2.1.3.1 33-1 34-1 37-1.1.1.1 36-1.1.1.2 37-1.1.1.3 40-1.1.2.2 41-1.1.2.2.1.r 42-1.1.2.2.1 43-1.1.2.1.r 45-1.1.2.1.2.1.1 46-1.1.2.1.2.1.2 47-1.1.2.1.2.1.3 48-1.1.2.1 51-1.1.2.1.1.r 50-1.1.2.1.1

# ::id nw.wsj_0003.21
# ::alignments 0-1.2.1.1.2.1 1-1.2.1.1.2 2-1.2.1.1.1 3-1.2.1.1 4-1.2.1.1.r 5-1.2.1 8-1.2.2.3.1 9-1.2.2.3 9-1.2.2.3.r 10-1.2.2 11-1.2.2.1.r 13-1.2.2.1 15-1.1 16-1.1.1.1 17-1

# ::id nw.wsj_0003.22
# ::alignments 0-1.3.r 1-1.3.1 1-1.3.1.r 4-1.1.1.1 5-1.1.1.2 6-1.1.1.3 7-1 9-1.2.2 10-1.2 11-1.2.1.r 12-1.2.1.2.1.1 13-1.2.1.2.1 14-1.2.1 15-1.2.1.1.r 16-1.2.1.1

# ::id nw.wsj_0003.23
# ::alignments 0-1.2 1-1.2.1.1 3-1.1.2.2.1 4-1.1.2.2 5-1.1.2.1 6-1.1 7-1.1.1.r 8-1.1.1.1.1 8-1.1.1.1 9-1.1.1 12-1

# ::id nw.wsj_0003.24
# ::alignments 0-1.1.2 1-1.1.2.1 2-1.1 2-1.1.1 2-1.1.1.r 3-1.1.1.1.r 5-1.1.1.1 7-1.1.1.1.1 8-1.1.1.1.1.1 9-1.1.1.1.1.1.1.r 11-1.1.1.1.1.1.1.1.1 12-1.1.1.1.1.1.1 12-1.1.1.1.1.1.1.2 12-1.1.1.1.1.1.1.2.r 14-1 15-1.2.r 16-1.2 17-1.3.r 19-1.3.1 19-1.3.1.r

# ::id nw.wsj_0003.25
# ::alignments 0-1.1 1-1.1.1.r 3-1.1.1 4-1.1.r 5-1.2 6-1 7-1.1.2.r 9-1.1.2.1 11-1.1.2

# ::id nw.wsj_0003.26
# ::alignments 0-1.1.1 0-1.1.1.1 0-1.1.1.1.r 1-1.1 2-1.1.2.2.2 3-1.1.2.2.1 4-1.1.2.2 5-1.1.2.2.r 7-1.1.2.1 8-1.1.2 9-1.1.3.r 11-1.1.3.1 12-1.1.3 14-1.2 15-1.2.3.r 16-1.2.2.1.1 17-1.2.2 18-1.2.2.2.1 19-1.2.2.1 19-1.2.2.2 20-1 21-1.3.3 21-1.3.3.r 22-1.3 24-1.3.2.1 25-1.3.2 26-1.4.r 28-1.4 29-1.4.1 31-1.4.1.1 32-1.4.1.1.1 32-1.4.1.1.1.1 32-1.4.1.1.1.1.r

# ::id nw.wsj_0003.27
# ::alignments 0-1.1 0-1.1.1 0-1.1.1.r 1-1 2-1.2 3-1.2.1.r 4-1.2.1.1 5-1.2.1 7-1.2.2 8-1.2.2.1 9-1.2.2.1.1 10-1.2.2.1.1.1.r 12-1.2.2.1.1.1 14-1.2.2.2.r 15-1.2.2.2.r 16-1.2.2.2.1.1 17-1.2.2.2.1 18-1.2.2.2 20-1.2.2.2.2

# ::id nw.wsj_0003.28
# ::alignments 2-1.2.1 3-1.2.1.r 3-1.2 4-1.2.2.r 7-1.2.2.1.1.1.3 8-1.2.2.1.1.1.1 8-1.2.2.1.1.1.1.1 8-1.2.2.1.1.1.1.1.r 9-1.2.2.1.1.1 10-1.2.2.1.1.1.2 10-1.2.2.1.1.1.2.1 10-1.2.2.1.1.1.2.1.r 11-1.2.2 12-1.2.2.2.1.1 12-1.2.2.2.1 13-1.2.2.2 15-1 16-1.1.1.1 17-1.1.1.2 19-1.1.2.2.1 20-1.1.2.2 21-1.1.2.2.2.r 22-1.1.2.2.2.1 23-1.1.2.2.2 24-1.1.2 25-1.1.2.1.1.1 26-1.1.2.1.1.2 27-1.1.2.1.1.3

# ::id nw.wsj_0003.29
# ::alignments 0-1 1-1.1.2.1 2-1.1 3-1.1 4-1.1.2 5-1.1.2.2.r 6-1.1.2.2.1 7-1.1.2.2 10-1.1.2.2.2.2.1 11-1.1.2.2.2.2.2 12-1.1.2.2.2 12-1.1.2.2.2.1 12-1.1.2.2.2.1.r

# ::id nw.wsj_0003.30
# ::alignments 0-1.2 1-1 2-1.1 2-1.1.r 3-1 4-1.3.r 5-1.3.2 5-1.3.2.r 6-1.3.1 7-1.3 8-1.4

# ::id nw.wsj_0004.1
# ::alignments 0-1.1.1 0-1.1.1.1 0-1.1.1.1.r 1-1.1.1.1.1.r 2-1.1.1.1.1.2.1 2-1.1.1.1.1.2 3-1.1.1.1.1.1 4-1.1.1.1.1 5-1 7-1.1 11-1.2.r 10-1.2 13-1.2.1.r 12-1.2.1.1.1.1 13-1.2.1.1 13-1.2.1.1.1 13-1.2.1.1.1.r 14-1.2.1 15-1.2.1.2.2 16-1.2.1.2 17-1.2.1.2.1.r 18-1.2.1.2.1.1 19-1.2.1.2.1

# ::id nw.wsj_0004.2
# ::alignments 1-1.1.2 2-1.1.1.2.1 2-1.1.1.2.2 3-1.1.1.3 4-1.1 4-1.1.1 4-1.1.1.r 5-1.1.1.1.r 7-1.1.1.1.1 8-1.1.1.1.2 8-1.1.1.1.2.1 8-1.1.1.1.2.1.r 9-1.1.1.1 10-1.1.1.1.3 11-1.1.1.1.3.1.r 12-1.1.1.1.3.1.2.1.1 13-1.1.1.1.3.1.2.r 14-1.1.1.1.3.1.1.1 15-1.1.1.1.3.1.1.2 16-1.1.1.1.3.1.1.3 17-1 21-1.2 20-1.2.1.r 21-1.2.1.1 22-1.2.1 23-1.2.1 24-1.4.r 25-1.4.1 26-1.4 27-1.3.r 28-1.3.1 29-1.3 32-1.5 33-1.5.1 34-1.5.1.1.1

# ::id nw.wsj_0004.3
# ::alignments 0-1.1.1.1 1-1.1 1-1.1.1 1-1.1.1.r 2-1 3-1.2.1 4-1.2.1.1.r 5-1.2.1.1 5-1.2.1.1.1 5-1.2.1.1.1.r 6-1.2 7-1.2.r 9-1.2.2.1.1.1 10-1.2.2.1 10-1.2.2.1.1 10-1.2.2.1.1.r 11-1.2.2 12-1.2.2.2.r 13-1.2.2.2.1 14-1.2.2.2.2

# ::id nw.wsj_0004.4
# ::alignments 0-1.2.1.2 1-1.2.1 2-1.2.1.1.r 4-1.2.1.1.1.1 6-1.2.1.1 6-1.2.1.1.1 6-1.2.1.1.1.r 7-1.2 8-1.2.2.r 9-1.2.2.1 10-1.2.2.2 11-1.2.3.r 12-1.2.3.1 13-1.2.3.2 16-1.2.3.3 16-1.2.3.3.1 16-1.2.3.3.1.r 17-1.2.3.3.2 18-1.2.3.3.2.1 19-1.2.3.3.2.1.1.1 19-1.2.3.3.2.1.1.1.r 21-1 22-1 23-1.1.1.1 24-1.1.1.2

# ::id nw.wsj_0004.5
# ::alignments 0-1.1.1.1 0-1.1.1.1.1 0-1.1.1.1.1.r 1-1.1.1 3-1 5-1.1 6-1.1.2 7-1.1.2.1.1 8-1.1.2.1 9-1.1.3 10-1.1.3.1.1 11-1.1.3.1 12-1.1.3.1.2.1.1.1 13-1.1.3.1.2.1 13-1.1.3.1.2.1.1 13-1.1.3.1.2.1.1.r 15-1.1.3.1.2 16-1.1.3.1.2.2.1.2 17-1.1.3.1.2.2.1 17-1.1.3.1.2.2.1.1 17-1.1.3.1.2.2.1.1.r 18-1.1.3.1.2.2 19-1.1.3.1.2.3.r 21-1.1.3.1.2.3.1 21-1.1.3.1.2.3.1.1 21-1.1.3.1.2.3.1.1.r 22-1.1.3.1.2.3

# ::id nw.wsj_0004.6
# ::alignments 0-1.1.1.1 0-1.1.1.1.1 0-1.1.1.1.1.r 1-1.1.1 3-1 5-1.1 6-1.1.2.r 7-1.1.2 8-1.1.2.1 9-1.2 10-1.2.1.1.1.1.1 11-1.2.1.1.1 11-1.2.1.1.1.1 11-1.2.1.1.1.1.r 12-1.2.1 13-1.2.1.1 14-1.2.1.1.2.1 14-1.2.1.1.2.1.1 14-1.2.1.1.2.1.1.r 15-1.2.1.1.2 16-1.2.1.1.3 16-1.2.1.1.3.1 16-1.2.1.1.3.1.r

# ::id nw.wsj_0004.7
# ::alignments 1-1.1.2 2-1.1 3-1.1.1.r 4-1.1.1 5-1.1.1.1 6-1.1.1.1.2 7-1.1.1.1.1.r 8-1.1.1.1.1 10-1.1.3.1 11-1.1.3.1.1.r 12-1.1.3.1.1 14-1.1.3 16-1.1.3.2 16-1.1.3.2.1 16-1.1.3.2.1.r 17-1.1.3 18-1.1.3.1.2 19-1.1.3.1.2.1.1.2 20-1.1.3.1.2.1.1 20-1.1.3.1.2.1.1.1 20-1.1.3.1.2.1.1.1.r 21-1.1.3.1.2.1 23-1.1.3.1.2.1.2 24-1.1.3.1.2.1.3 24-1.1.3.1.2.1.3.r 26-1 28-1.2.3.1 29-1.2.3 30-1.2.3.2.r 32-1.2.3.2 34-1.2.1 35-1.2.2

# ::id nw.wsj_0004.8
# ::alignments 0-1.2.2 2-1 3-1.1.1.1 4-1.1.1.2 5-1.1.1.3 7-1.1.2.2 8-1.1.2 9-1.1.2.1.1.1 10-1.1.2.1.1.2 11-1.1.2.1.1.3 13-1.2.1.1 13-1.2.1.1.1 13-1.2.1.1.1.r 14-1.2 15-1.2.1 16-1.2.1.4 17-1.2.1.2 18-1.2.1.3 19-1.2.1.3.1.1 20-1.2.1.3.1 21-1.2.1.3.1.2 22-1.2.1.5 23-1.2.1.5 24-1.2.1.5.1.2 25-1.2.1.5.1 27-1.2.1.5.1.1.r 27-1.2.1.5.1.1.2 27-1.2.1.5.1.1.2.r 28-1.2.1.5.1.1.1 29-1.2.1.5.1.1

# ::id nw.wsj_0004.9
# ::alignments 1-1.1 1-1.1.1 1-1.1.1.r 2-1.1.1.1.r 3-1.1.1.1.2.1 3-1.1.1.1.2.2 4-1.1.1.1.1.1.1 5-1.1.1.1 6-1.1.1.1.3 7-1.1.1.1.3 8-1.1.1.1.3.1.1 9-1.1.1.1.3.1.r 10-1.1.1.1.3 12-1.4.r 13-1.4 15-1 16-1.3.r 17-1.3.1 18-1.3 19-1.2.r 20-1.2.1 21-1.2

# ::id nw.wsj_0004.10
# ::alignments 0-1.3.r 1-1.3.2 2-1.3 3-1.3.1.r 4-1.3.1 4-1.3.1.1 4-1.3.1.1.r 6-1.1 6-1.1.1 6-1.1.1.r 7-1 9-1.2 10-1.2.2 11-1.2.3.r 12-1.2.3.1 13-1.2.3

# ::id nw.wsj_0004.11
# ::alignments 0-1.1 1-1.1.1.r 3-1.1.1.1 4-1.1.1.2 5-1.1.1 6-1 7-1.2.r 8-1.2.2 9-1.2.1 10-1.2.1 11-1.4.r 13-1.4.1 13-1.4.1.1 13-1.4.1.1.r 14-1.4 16-1.3.r 17-1.3.2 18-1.3.1 19-1.3.1

# ::id nw.wsj_0004.12
# ::alignments 0-1.3 2-1.1.1.1.1 2-1.1.1.1 3-1.1 3-1.1.1 3-1.1.1.r 4-1 5-1.2.2 6-1.2.1.1 6-1.2.1.1.r 7-1.2 7-1.2.1 7-1.2.1.r 8-1.4 9-1.4.1.1.1.1.1.1 10-1.4.1.1.1.1 10-1.4.1.1.1.1.1 10-1.4.1.1.1.1.1.r 11-1.4.1 12-1.4.1.1.1 13-1.4.1.1.1.2 14-1.4.1.1 15-1.4.1.1.2 16-1.4.1.1.2 18-1.4.1.1.2.2.1 18-1.4.1.1.2.2.1.1 18-1.4.1.1.2.2.1.1.r 19-1.4.1.1.2.2

# ::id nw.wsj_0004.13
# ::alignments 1-1.1.1 2-1.1.2 3-1.1 5-1.3 6-1 7-1.2.2 8-1.2 9-1.2.1.1 10-1.2.1

# ::id nw.wsj_0004.14
# ::alignments 0-1.1.1.1 1-1.1.1.2 1-1.1.1.2 1-1.1.1.2 2-1.1.1.3 5-1.1.2.1 5-1.1.2 6-1.1 8-1 10-1.4.1 10-1.4.2 11-1.5 12-1 13-1.2.r 14-1.2.1 15-1.2 16-1.3.r 18-1.3.1 18-1.3.1.1 18-1.3.1.1.r 19-1.3 21-1.2.2 22-1.2.2.1.r 23-1.2.2.1.1 24-1.2.2.1 25-1.2.2.1.2.1.1.1 26-1.2.2.1.2.1.1.2 27-1.2.2.1.2 27-1.2.2.1.2.1 27-1.2.2.1.2.1.r

# ::id nw.wsj_0004.15
# ::alignments 0-1.1.1 1-1.1 2-1.1.3 2-1.1.3.r 3-1.1.2.r 4-1.1.2.1.1 4-1.1.2.1 5-1.1.2 6-1.1.2.2 8-1 9-1.2.4 10-1.2 11-1.2.2.1 12-1.2.2 15-1.2.3 16-1.2.3.1.1.1 16-1.2.3.1.1.1.r 17-1.2.3.1 17-1.2.3.1.1 17-1.2.3.1.1.r

# ::id nw.wsj_0004.16
# ::alignments 1-1.5 2-1.3.1 2-1.3.2 3-1.4 4-1 5-1.1.r 7-1.1.1 8-1.1 9-1 10-1.2.1 11-1.2 13-1.2.2 14-1.2.2.1.r 15-1.2.2.1.1 16-1.2.2.1

# ::id nw.wsj_0004.17
# ::alignments 1-1.1.1.1.1.1 1-1.1.1.1.1.2 2-1.1.1.1.2 3-1.1.1 3-1.1.1.1 3-1.1.1.1.r 4-1.1 5-1.1.3.r 7-1.1.3.2 8-1.1.3.1 9-1.1.3 10-1.1.2.r 11-1.1.2.1 12-1.1.2 15-1.2.1.1.1.1 15-1.2.1.1.1.2 16-1.2.1.1.2 17-1.2.1 17-1.2.1.1 17-1.2.1.1.r 18-1.2 19-1.2.3.r 21-1.2.3.2 22-1.2.3.1 23-1.2.3 24-1.2.2.r 25-1.2.2.1 26-1.2.2

# ::id nw.wsj_0005.1
# ::alignments 0-1.1.1.1 1-1.1.1.2 3-1.1.2.2.1 4-1.1.2.2 5-1.1.2 6-1.1.2.1.1.1 7-1.1.2.1.1.2 8-1.1.2.1.1.3 9-1.1.2.1.1.4 12-1.1.2.1.2 14-1.1.2.1.2.1.1.1 15-1.1.2.1.2.1.1 16-1.1.2.1.2.1 17-1.1.2.1.2.1.2.r 18-1.1.2.1.2.1.2.1 19-1.1.2.1.2.1.2.2.1 19-1.1.2.1.2.1.2.2 20-1.1.2.1.2.1.2 23-1 25-1.2

# ::id nw.wsj_0005.2
# ::alignments 0-1.1 1-1 2-1.2.1.1 3-1.2.1.2 4-1.2.1.3 6-1.2.3.3 8-1.2.3.1.1.1 9-1.2.3.1.1.2 10-1.2.3.2.1 11-1.2.3.2 14-1.2.2

# ::id nw.wsj_0005.3
# ::alignments 0-1.1.1.1 1-1.1.1.2 2-1 3-1.2.1 4-1.2.2 5-1.2.2.1.3.1.1 6-1.2.2.1.3.1.2 7-1.2.2.1.3.r 8-1.2.2.1.1 9-1.2.2.1.2 10-1.2.2.1

# ::id nw.wsj_0007.1
# ::alignments 0-1.1.1.1 1-1.1.1.2 2-1.1.1.3 3-1 4-1.2.1.2 4-1.2.1.2.r 5-1.2.1.1.1 6-1.2.1.1.2 7-1.2.1.1.3 8-1.2.1 9-1.2 11-1.2.2 12-1.2.2.2.r 13-1.2.2.2.2 13-1.2.2.2.2.r 14-1.2.2.2.1.1 15-1.2.2.2.1.2 16-1.2.2.2.1.3 17-1.2.2.3.r 18-1.2.2.3.1.1 19-1.2.2.3.1.2 20-1.2.2.3.1.2 21-1.2.2.3.1.2 22-1.2.2.4.r 23-1.2.2.4.2 24-1.2.2.4.1 25-1.2.2.4.1

# ::id nw.wsj_0007.2
# ::alignments 0-1.1.1 3-1.4.1.1 4-1.2.1 4-1.2 5-1.5 6-1 7-1.3.r 8-1.3 9-1.3.1.r 11-1.3.1.1.1 12-1.3.1.1 13-1.3.1

# ::id nw.wsj_0007.3
# ::alignments 0-1.1.1.1 1-1.1.1.2 3-1.1.2 4-1.1.2.1.r 5-1.1.2.1.1.1 7-1.1.2.1.2.1.1 9-1 10-1.2.1 11-1.2.2 12-1.2.3 13-1.2

# ::id nw.wsj_0007.4
# ::alignments 0-1.1.1 1-1.1 2-1.1.2.1 3-1.1.2 4-1 5-1.2 6-1.2.2.1 6-1.2.2.1.2 6-1.2.2.1.2.1 6-1.2.2.1.2.1.r 6-1.2.2.1.2.2 6-1.2.2.1.2.2.r 6-1.2.2.1.2.r 7-1.2.2 8-1.2.2.1.1.r 9-1.2.2.1.1 10-1.2.2.1.1.1.2 11-1.2.2.1.1.1.1 12-1.2.2.1.1.1.1

# ::id nw.wsj_0008.1
# ::alignments 1-1.1.2 2-1.1 2-1.1.1 2-1.1.1.r 3-1 4-1.2 5-1.2.1.r 6-1.2.1.2.1.1 7-1.2.1.1 8-1.2.1 9-1.3 10-1.3.1.1.1.1 12-1.3.1.3 12-1.3.1.3.r 13-1.3.1 15-1.3.1.2 16-1.3.1.2.1.r 17-1.3.1.2.1.1 17-1.3.1.2.1.1.1 17-1.3.1.2.1.1.1.r 18-1.3.1.2.1

# ::id nw.wsj_0008.2
# ::alignments 0-1.2.4 1-1.2.4.1.1.1.1 2-1.2.4.1 5-1.2.2 5-1.2.2.1 5-1.2.2.1.r 6-1.2 7-1.2.3 7-1.2.3.r 9-1.2 11-1.2.1 12-1.2.1.2.2 13-1.2.1.2.1 14-1.2.1.2 15-1.2.1.2.3.r 16-1.2.1.2.3.1 17-1.2.1.2.3 20-1.1.1.1 21-1

# ::id nw.wsj_0008.3
# ::alignments 1-1.1.1.2.1 1-1.1.1.2.1.1 1-1.1.1.2.1.1.r 2-1.1.1.2.1.r 3-1.1 3-1.1.1 3-1.1.1.r 4-1.1.1.2 5-1 6-1.4.r 7-1.4 7-1.4.1 7-1.4.1.r 7-1.4.2 7-1.4.2.r 8-1.4 8-1.4.1 8-1.4.1.r 8-1.4.2 8-1.4.2.r 9-1.3.r 10-1.3.2 11-1.3.1 12-1.3.1 13-1.2.r 14-1.2.2 15-1.2.1 16-1.2.1

# ::id nw.wsj_0008.4
# ::alignments 0-1.1 2-1.1.1 4-1.1.1.1.1 5-1.1.1.1 7-1 8-1.2.r 10-1.2 11-1.2.1.r 12-1.2.1 13-1.2.1.1.1.1.1.1 13-1.2.1.1.1.1 13-1.2.1.1.1.1.1 13-1.2.1.1.1.1.1.r 14-1.2.1.1 14-1.2.1.1.1 14-1.2.1.1.1.r

# ::id nw.wsj_0008.5
# ::alignments 1-1.1.1.1.1 3-1.1 5-1.1.2 7-1.1.2.1 8-1.1.2.2.r 9-1.1.2.2.2 10-1.1.2.2.1 11-1.1.2.2.1 13-1 15-1.2.1.2.1.1 17-1.2.1.1 17-1.2.1.1.r 18-1.2 20-1.2.1 21-1.2.1.3 22-1.2.1.3.1.1 23-1.2.1.3.1 24-1.2.1.3 25-1.2.1.3 26-1.2.1.3

# ::id nw.wsj_0008.6
# ::alignments 1-1.1.1.1 2-1 4-1.2.1.1.1 6-1.2 7-1.2.2.r 8-1.2.2.1 8-1.2.2.1.r 9-1.2.2.2 10-1.2.3.r 11-1.2.3.2.1.1 13-1.2.3.1 13-1.2.3.1.r 14-1.2.3 15-1.2.3.3 16-1.2.3.3.1

# ::id nw.wsj_0009.1
# ::alignments 0-1.1.1.1 1-1.1.1.2 2-1.1.1.3 4-1 5-1.2.1.2 6-1.2.1.1 7-1.2.1 8-1.2 9-1.2.2.2 10-1.2.2 10-1.2.2.1 10-1.2.2.1.r 11-1.2.3 12-1.2.3.2.1 13-1.2.3.2.3.1.1 14-1.2.3.2.4 16-1.2.3.2.5 17-1.2.3.2 18-1.2.3.2.2.r 19-1.2.3.2.2.2.1.1 20-1.2.3.2.2.3.1 21-1.2.3.2.2 21-1.2.3.2.2.3 21-1.2.3.2.2.3.r 22-1.2.3.2.2.1.1 23-1.2.3.2.2.1.2 24-1.2.3.2.2.1.3

# ::id nw.wsj_0009.2
# ::alignments 0-1.3 2-1.3.2.1 3-1.3.2 4-1.1 6-1 7-1.2.5.1.1 8-1.2.5.r 9-1.2.6.1.1 10-1.2.1.1 12-1.2.2.1 14-1.2.3.1 15-1.2 16-1.2.4.1 17-1.2.1 17-1.2.2 17-1.2.3 17-1.2.4

# ::id nw.wsj_0009.3
# ::alignments 0-1.2.3 2-1.1.1 3-1.1.2 5-1.3.1 6-1.3.2 7-1.3.r 9-1.2 10-1.2.2.3 11-1.2.2.2 12-1.2.2 12-1.2.2.1 12-1.2.2.1.r 13-1.2 14-1.2.1.2.1.1 15-1.2.1.2.1.2 16-1.2.1.2.r 17-1.2.1.1.1 18-1.2.1

# ::id nw.wsj_0009.4
# ::alignments 0-1.1 2-1 4-1.3.1.1 5-1.3.1 6-1.3.1.2 7-1.3 8-1 9-1.2.1.1 10-1.4.r 11-1.4.1 12-1.4.2

# ::id nw.wsj_0010.1
# ::alignments 0-1.4.r 1-1.4.r 2-1.4.r 3-1.4.r 5-1.4.1 5-1.4.1.r 6-1.4.2 6-1.4.2.1 6-1.4.2.1.r 6-1.4.2.2 6-1.4.2.2.1 6-1.4.2.2.1.r 6-1.4.2.2.2 6-1.4.2.2.2.r 6-1.4.2.2.r 7-1.4 10-1.1.2 11-1.1.2.r 12-1.1.1 13-1.1 14-1.3 15-1 16-1 17-1.2.r 19-1.2.3.1 20-1.2.3 21-1.2.3.r 22-1.2.1 23-1.2 24-1.2.2.r 25-1.2.2.1.1.1 26-1.2.2.1.1.2 27-1.2.2 28-1.2.2.2.1.1 29-1.2.2.2.1.2

# ::id nw.wsj_0010.2
# ::alignments 0-1.2 0-1.2.r 1-1.1 2-1

# ::id nw.wsj_0010.3
# ::alignments 1-1.1.1.1 2-1.1.1.2 3-1.1.1.3 4-1.1.1.4 5-1 6-1.2.r 8-1.2.3.2.1.1 9-1.2.3 11-1.2.3.1.1 13-1.2.1.1 13-1.2.1.1.r 14-1.2.2.1 15-1.2.1 16-1.2

# ::id nw.wsj_0010.4
# ::alignments 0-1 2-1.1.1 3-1.1 5-1.1.2 6-1.1.2.2.1 6-1.1.2.2.1.r 7-1.1.2.2 8-1.1.2.3.3 9-1.1.2.3.r 10-1.1.2.3.1 11-1.1.2.3 12-1.1.2.3.2.1 13-1.1.2.3.2 14-1.1.2.3.4.r 15-1.1.2.3.4.1.1 16-1.1.2.3.4 16-1.1.2.3.4.1 16-1.1.2.3.4.1.r

# ::id nw.wsj_0010.5
# ::alignments 1-1.3 3-1.4 4-1.4 7-1 8-1.2.r 9-1.2.1 10-1.2.3 11-1.2 11-1.2.2 11-1.2.2.r 12-1.2 12-1.2.2 12-1.2.2.r 13-1.1.r 15-1.1.1.2 16-1.1.1.2.1.r 18-1.1.1.2.1.1.1 19-1.1.1.2.1.1.2 20-1.1.1 21-1.1.1.1 21-1.1.1.1.r 23-1.1.1 24-1.1.1.3 25-1.1.1.3 27-1.1.r 28-1.1.2.2 29-1.1.2.2.r 31-1.1.2.1 32-1.1.2 33-1.1.2.3.r 35-1.1.2.3.1 37-1.1.2.3

# ::id nw.wsj_0010.6
# ::alignments 0-1.1.r 2-1 3-1.1.r 4-1.2.r 6-1.2 6-1.2.1 6-1.2.1.r 8-1.1.1.2 9-1.1.1 10-1.1.1.1.1 11-1.1.1.1.1.1.r 12-1.1.1.1.1.1.1.1.1 13-1.1.1.1.1.1.1.1.2 14-1.1.1.1.1.1 15-1.1.1.1.1.1.2.1.1 17-1.1.1.1 18-1.1.1.1 19-1.1.1.1.2.1.1 20-1.1.1.1.2.1 21-1.1.1.1.2.2.r 22-1.1.1.1.2.2.1.1.1 23-1.1.1.1.2.2.1.1.2 24-1.1.1.1.2.2 26-1.1.1.1.2.2.2.1.1 27-1.1.1.1.2.2.2.1.2 28-1.1.1.1.2.2.2.1.3 29-1.1.1.1.2.2.2.1.4

# ::id nw.wsj_0010.7
# ::alignments 0-1.4.r 1-1.4 4-1.1.1.1 5-1 6-1.2.2.1 7-1.2.1.1 8-1.2.1.2 9-1.2.1.3 10-1.2.1.4 11-1.3.r 13-1.3 14-1.3.1.r 16-1.3.1.1.1.1 17-1.3.1.1.1.2 18-1.3.1.1.1.3 19-1.3.1 21-1.3.1.2.4 22-1.3.1.2.2 22-1.3.1.2.2.1 22-1.3.1.2.2.1.1 22-1.3.1.2.2.1.1.r 22-1.3.1.2.2.1.r 22-1.3.1.2.3 23-1.3.1.2.1.1 24-1.3.1.2.1.2

# ::id nw.wsj_0010.8
# ::alignments 0-1.1.1 1-1.1 2-1.1.2 3-1

# ::id nw.wsj_0010.9
# ::alignments 1-1.4.2 2-1.4.1 4-1.1.4.r 6-1.1.4.1 7-1.1.4 9-1.1.3 10-1.1.3.r 11-1.1.1.1.1 12-1.1 13-1.1.2.1 13-1.1.2.1.r 14-1.1.2 15-1 16-1.2.r 18-1.2.1.1 19-1.2.1.2 20-1.2.1.3 22-1.3 22-1.3.1 22-1.3.1.r 23-1.3.2.r 24-1.3.2.1 25-1.3.2 26-1.3.2.2.1 27-1.3.2.2

# ::id nw.wsj_0010.10
# ::alignments 1-1.2.1.1.1 2-1 3-1.1 3-1.1.r 4-1.2 5-1.2 7-1.3 9-1.3.1.1.1.1.1 10-1.3.1.1.1.1 11-1.3.1 13-1.3.1.2.1 14-1.3.1.2

# ::id nw.wsj_0010.11
# ::alignments 1-1.1.1 2-1.1 4-1 5-1.2.r 7-1.2 9-1.2.1.r 10-1.2.1.1.1 11-1.2.1.1 12-1.2.1.1.2 14-1.2.1 15-1.2.1.2.r 16-1.2.1.2.2 17-1.2.1.2 17-1.2.1.2.1 17-1.2.1.2.1.r

# ::id nw.wsj_0010.12
# ::alignments 0-1.4 2-1.5.r 4-1.5.1 5-1.5.1.r 6-1.5 9-1.1 10-1 11-1 12-1.2.1.1 13-1.2.1 13-1.2.1.2 13-1.2.1.2.r 15-1.2.2 16-1.2 17-1.2.3.4 19-1.2.3.3 20-1.2.3.2.1.1 21-1.2.3.2.1.2 22-1.2.3 22-1.2.3.1 22-1.2.3.1.r 23-1.3.r 25-1.3.1.1 25-1.3.1 26-1.3.2 27-1.3

# ::id nw.wsj_0010.13
# ::alignments 0-1.3 2-1.3.1 4-1.1.1.1.1.1.1 5-1.1.1.1.1.1.2 6-1.1.1.2 7-1 8-1.4 9-1.4.1.1 10-1.2.r 12-1.2.1 13-1.2 14-1.2.2 14-1.2.2.1 14-1.2.2.1.r

# ::id nw.wsj_0010.14
# ::alignments 0-1.1.2.1 0-1.1.2.1.r 1-1.1.2 4-1.1 4-1.1.1 4-1.1.1.r 5-1 6-1 7-1.2.1 8-1.2.3 9-1.2 10-1.2.2 11-1.2.2.1.r 12-1.2.2.1.1 12-1.2.2.1.1.r 13-1.2.2.1 14-1.2.2.2.r 15-1.2.2.2.2.2 16-1.2.2.2.2 16-1.2.2.2.2.1 16-1.2.2.2.2.1.r 17-1.2.2.2.2.r 18-1.2.2.2 19-1.2.2.2.1 20-1.2.2.2.1.2

# ::id nw.wsj_0010.15
# ::alignments 0-1.4.1 1-1.4 4-1.1.1.1 5-1 6-1 8-1.2.2 9-1.2 10-1.2.1.r 12-1.2.1 13-1.3 14-1.3.1 16-1.3.1.2 17-1.3.1.3

# ::id nw.wsj_0010.16
# ::alignments 0-1.3.1 1-1.3 3-1.1 5-1 6-1.2.1 7-1.2 8-1.2.2 11-1.2.3.1 12-1.2.3

# ::id nw.wsj_0010.17
# ::alignments 0-1.4 2-1.4.1.1 3-1.4.1 4-1.4.1.2 5-1.4.1.3.r 7-1.4.1.3.2 8-1.4.1.3.1.1 9-1.4.1.3.1.2 10-1.4.1.3 12-1.1.1 13-1.1.2 15-1.1.2.1.1 15-1.1.2.1.1.1 15-1.1.2.1.1.1.r 16-1.1 16-1.1.2.1 17-1.1.2.1.2.r 18-1.1.2.1.2 19-1 20-1.3 21-1.2.1.2.1.1 22-1.2.1.1 23-1.2.1 25-1.2.2.1 26-1.2.2 28-1.2.3.1 29-1.2.3 30-1.2 31-1.2.4.1 32-1.2.4 33-1.2.4.2.r 35-1.2.4.2.1 36-1.2.4.2

# ::id nw.wsj_0010.18
# ::alignments 0-1.4.1 2-1.4.1.2.1 5-1.4.1.2.2 7-1.4.1.2 8-1.4.1.3.r 9-1.4.1.3.1 10-1.4.1.3 11-1.4.1.3.2 14-1.1.1.1 15-1 17-1.3 19-1.2.1 20-1.2

# ::id nw.wsj_0010.19
# ::alignments 0-1.1.2 1-1.1.2 3-1.1.2.1 4-1.1.1.1 5-1 7-1.2.2.1.1 7-1.2.2.1 8-1.2.2 9-1.2 10-1.2.1 12-1.2.3 13-1.2.3.2.r 15-1.2.3.2.1 16-1.2.3.2 17-1.2.3.3.r 18-1.2.3.3.1 19-1.2.3.3

# ::id nw.wsj_0010.20
# ::alignments 0-1 2-1.1.3 4-1.1.1 6-1.1 7-1.1 8-1.1.2.r 9-1.1.2.1 9-1.1.2.1.r 10-1.1.2.2.1 11-1.1.2 13-1.1.2.3.1.1 14-1.1.2.4.r 15-1.1.2.4.1 15-1.1.2.4.1.r

# ::id nw.wsj_0011.1
# ::alignments 0-1.2.1.1.1 1-1.2.1.1.2 2-1.2 4-1.2.2.1 5-1.2.2 6-1.2.2.2.r 7-1.2.2.2.2 8-1.2.2.2.1 9-1.2.2.2.1 10-1.2.3.r 11-1.2.3.1 11-1.2.3.1.r 13-1.2.2.3 15-1.2.2.3.1.1.1 16-1.2.2.3.1.1.1.r 17-1.2.2.3.1.1 18-1.2.2.3.1 20-1 21-1 22-1.1.1 22-1.1.1.1 22-1.1.1.1.r 23-1.1 24-1.1.2 25-1.1.2.2.1

# ::id nw.wsj_0011.2
# ::alignments 0-1.1.2 1-1.1 2-1.1.1.r 4-1.1.1.1.1 5-1.1.1.1.2 6-1.1.1.1.3 7-1.1.1.1.4 8-1 9-1.2.2 10-1.2.1 11-1.2 12-1.2.5.r 13-1.2.5.1 13-1.2.5.1.r 16-1.2.3.2 16-1.2.3.2.1 16-1.2.3.2.1.r 17-1.2.3.1 18-1.2.3 19-1.2.3.2.2.1 20-1.2.3.2.2 22-1.2.4 24-1.2.4.1 25-1.2.4.2.r 26-1.2.4.2.2.1.1 27-1.2.4.2.2.1.2 28-1.2.4.2.2.r 29-1.2.4.2.1.1 29-1.2.4.2.1 30-1.2.4.2

# ::id nw.wsj_0011.3
# ::alignments 0-1.1.1 0-1.1.1.1 0-1.1.1.1.r 1-1.1.1.1.1.r 2-1.1.1.1.1.1 2-1.1.1.1.1.1.r 3-1.1 4-1.1.2.r 5-1.1.2.2 6-1.1.2.1 7-1.1.2.1 10-1.1.2.3.1.2 11-1.1.2.3.1.1 12-1.1.2.3.1 13-1.1.2.3 14-1.1.2.3.2.r 15-1.1.2.3.2.1.1.1.1 16-1.1.2.3.2.1.1.1.2 17-1.1.2.3.2.1 17-1.1.2.3.2.1.1 17-1.1.2.3.2.1.1.r 19-1 20-1.2.1 20-1.2.1.1 20-1.2.1.1.r 21-1.2 22-1.2.5 22-1.2.5.r 23-1.2.4.r 24-1.2.4.2 25-1.2.4.1 26-1.2.4.1 28-1.2.2.r 29-1.2.2.1 30-1.2.2 31-1.2.3.r 32-1.2.3.1.2 33-1.2.3.1.1 33-1.2.3.1.1.r

# ::id nw.wsj_0011.4
# ::alignments 0-1.1.1.1.1.1 1-1.1.1.1.1.2 2-1.1.1.1.r 3-1.1.1 4-1.1 7-1.1.2 8-1.1.2.1.r 9-1.1.2.1.1 11-1 12-1.2.1 13-1.2 14-1.3 15-1.3 16-1.3.1.1.2 17-1.3.1.1.1 18-1.3.1.1 20-1.3.1.2.1 21-1.3.1.2 22-1.3.1 23-1.3.1.3.1 24-1.3.1.3

# ::id nw.wsj_0011.5
# ::alignments 0-1.1.1.1 0-1.1.1.1.1 0-1.1.1.1.1.r 1-1.1.1.2 2-1 3-1.2.1 3-1.2.1.1 3-1.2.1.1.r 4-1.2.1.2.r 6-1.2.1.2 7-1.2.1.2.1.r 9-1.2.1.2.1 11-1.2 12-1.2.2 14-1.2.2.1.3.1 15-1.2.2.1.3 16-1.2.2.1.3.r 17-1.2.2.1.2 18-1.2.2.1.1 19-1.2.2.1.1

# ::id nw.wsj_0011.6
# ::alignments 0-1.3.r 2-1.3.2 3-1.3 3-1.3.1 3-1.3.1.r 5-1.1.1.1 6-1.1.1.2 8-1 10-1.2.1 11-1.2 12-1.2.2.r 13-1.2.2.2 14-1.2.2.1 15-1.2.2.1 16-1.2.3 17-1.2.3 18-1.2.3.1.1 19-1.2.3.1

# ::id nw.wsj_0011.7
# ::alignments 0-1.4.3.1.r 1-1.4.3.1.1 1-1.4.3.1.1.r 2-1.4.3.2.r 3-1.4.3.2.1 3-1.4.3.2.1.r 6-1.1.1.1 7-1.1.1.1.r 8-1.1.2 9-1.1 9-1.1.1 9-1.1.1.r 10-1 11-1.2.1 12-1.2 13-1.3.r 15-1.3.1 16-1.3.1 17-1.3.1.1.2.1 18-1.3.1.1.1 18-1.3.1.1.2 18-1.4.3.1.1 19-1.4.r 20-1.4.2 21-1.4.1 22-1.4.1

# ::id nw.wsj_0011.8
# ::alignments 0-1.1 0-1.1.1 0-1.1.1.r 2-1.3.r 3-1.3.2 4-1.3.1 5-1.3.1 7-1 8-1.2.1 9-1.2

# ::id nw.wsj_0012.1
# ::alignments 0-1.1.1.1.1 2-1.3.1 4-1.3.1.2 5-1.3.1.2 6-1.3.1.2.2.r 7-1.3.1.2.2.2 8-1.3.1.2.2.1.1 9-1.3.1.2.2 11-1.1 12-1.1.2.1 13-1.1.2.2 14-1.1.2 15-1.1.2.3.r 16-1.1.2.3.1 17-1 18-1.2 19-1.2.2.1 21-1.2.2 23-1.2.2.2.1 24-1.2.2.2.2 25-1.2.2.2 27-1.2.2.2.2.1 27-1.2.2.2.2.1.1 27-1.2.2.2.2.1.1.r

# ::id nw.wsj_0012.2
# ::alignments 1-1.1.1 2-1.1.2 3-1.1 4-1.1.3.r 5-1.1.3.1.1 8-1.1.3.2.r 9-1.1.3.2.r 11-1.1.3.2.1.1 12-1.1.3.2.1.2 13-1.1.3.2.1.3 15-1.1.r 17-1.4 17-1.4.1 17-1.4.1.r 18-1.3 19-1 21-1.2.1 23-1.2 24-1.2.2 24-1.2.2.1 24-1.2.2.1.r 25-1.4.2.r 26-1.4.2.1 27-1.4.2.2

# ::id nw.wsj_0012.3
# ::alignments 0-1.1.1 2-1.1.1.1 3-1.1.1.1.2 3-1.1.1.1.2.1 3-1.1.1.1.2.1.r 4-1.1.1.1.1 4-1.1.1.1.1.1 4-1.1.1.1.1.1.r 5-1.1.1.1.3 6-1.1.1.1.3.1.1 7-1.1.1.1.3.1 8-1.1.1.1.3.1.2 9-1.1.1.1.3.1.1.2.1.2 10-1.1.1.1.3.1.1.2.1 12-1.1 13-1.1.2.1 14-1.1.2 15-1.1.2.2.r 17-1.1.2.2.2 18-1.1.2.2 18-1.1.2.2.1 18-1.1.2.2.1.1 18-1.1.2.2.1.1.1 18-1.1.2.2.1.1.1.r 18-1.1.2.2.1.1.2 18-1.1.2.2.1.1.2.r 18-1.1.2.2.1.1.r 19-1 20-1.2 22-1.2.2.2 23-1.2.2 24-1.2.2.1.r 25-1.2.2.1.1.1.1 27-1.2.2.1.2.2.1.1 28-1.2.2.1.2.2.1.2 29-1.2.2.1.2.2.1.3 30-1.2.2.1.2.2.r 31-1.2.2.1.2.1.1 32-1.2.2.1.2.1.2 34-1.2.2.1 35-1.2.2.1.3.2.1.1 36-1.2.2.1.3.2.1.2 37-1.2.2.1.3.2.1.3 38-1.2.2.1.3.2.r 39-1.2.2.1.3.1.1 40-1.2.2.1.3.1.2 41-1.2.2.1.3.1.3 42-1.2.2.1.3.1.4 43-1.2.2.1.3.1.5

# ::id nw.wsj_0012.4
# ::alignments 0-1.1.1.1 1-1.1.1.2 3-1.1.2.2 4-1.1.2 5-1.1.2.1.1.2.1.1 6-1.1.2.1 8-1 9-1.2.2.2 10-1.2.2.2.r 11-1.2.2.1 12-1.2.2 14-1.2 15-1.2.3.1 16-1.2.3 17-1.2.4.r 18-1.2.4.1 18-1.2.4.1.r

# ::id nw.wsj_0012.5
# ::alignments 1-1.1.2 3-1.1.1.1 3-1.1.1 4-1.1 5-1.1.3.r 6-1.1.3.1.1 8-1 9-1.2.1 10-1.2.2

