exampleId,derivationNo,splitQuality,correctDeps,retrievedDeps,totalDeps,precision,recall,f1
nw.wsj_0001.1,0,1.0,14,15,15,93.33,93.33,93.33
nw.wsj_0001.1,3,1.0,13,15,15,86.67,86.67,86.67
nw.wsj_0001.1,2,1.0,14,15,15,93.33,93.33,93.33
nw.wsj_0001.1,1,1.0,15,15,15,100.0,100.0,100.0
nw.wsj_0001.1,4,1.0,13,15,15,86.67,86.67,86.67
nw.wsj_0001.1,5,0.868421052631579,14,17,15,82.35,93.33,87.5
nw.wsj_0001.1,6,0.7368421052631579,13,16,15,81.25,86.67,83.87
nw.wsj_0001.2,0,0.2857142857142857,9,10,12,90.0,75.0,81.82
nw.wsj_0001.2,1,0.7142857142857143,10,10,12,100.0,83.33,90.91
nw.wsj_0001.2,2,0.2857142857142857,9,10,12,90.0,75.0,81.82
nw.wsj_0001.1,7,1.0,13,15,15,86.67,86.67,86.67
nw.wsj_0001.2,3,0.7142857142857143,10,10,12,100.0,83.33,90.91
nw.wsj_0001.1,8,1.0,13,15,15,86.67,86.67,86.67
nw.wsj_0001.2,4,0.2857142857142857,9,10,12,90.0,75.0,81.82
nw.wsj_0001.2,5,0.7142857142857143,10,10,12,100.0,83.33,90.91
nw.wsj_0001.2,6,0.27586206896551724,9,10,12,90.0,75.0,81.82
nw.wsj_0001.2,7,0.6206896551724138,10,10,12,100.0,83.33,90.91
nw.wsj_0001.2,8,0.7142857142857143,9,10,12,90.0,75.0,81.82
nw.wsj_0001.2,9,0.7142857142857143,9,10,12,90.0,75.0,81.82
nw.wsj_0003.1,0,0.1,30,35,36,85.71,83.33,84.51
nw.wsj_0001.1,9,1.0,14,15,15,93.33,93.33,93.33
nw.wsj_0003.1,2,0.1,32,35,36,91.43,88.89,90.14
nw.wsj_0003.1,1,0.1,30,35,36,85.71,83.33,84.51
nw.wsj_0003.1,3,0.1,31,35,36,88.57,86.11,87.32
nw.wsj_0003.1,4,0.1,31,35,36,88.57,86.11,87.32
nw.wsj_0003.1,5,0.1,30,35,36,85.71,83.33,84.51
nw.wsj_0003.1,6,0.1,33,35,36,94.29,91.67,92.96
nw.wsj_0003.1,7,0.1,30,35,36,85.71,83.33,84.51
nw.wsj_0003.1,8,0.1,32,35,36,91.43,88.89,90.14
nw.wsj_0003.1,9,0.1,31,35,36,88.57,86.11,87.32
nw.wsj_0003.2,0,0.3188405797101449,27,29,31,93.1,87.1,90.0
nw.wsj_0003.2,2,0.21739130434782608,23,29,31,79.31,74.19,76.67
nw.wsj_0003.2,3,0.21739130434782608,23,29,31,79.31,74.19,76.67
nw.wsj_0003.2,4,0.21739130434782608,25,29,31,86.21,80.65,83.33
nw.wsj_0003.2,5,0.21739130434782608,24,29,31,82.76,77.42,80.0
nw.wsj_0003.2,1,0.463768115942029,28,29,31,96.55,90.32,93.33
nw.wsj_0003.2,6,0.21739130434782608,25,29,31,86.21,80.65,83.33
nw.wsj_0003.2,7,0.21739130434782608,23,29,31,79.31,74.19,76.67
nw.wsj_0003.2,8,0.21739130434782608,23,29,31,79.31,74.19,76.67
nw.wsj_0003.2,9,0.21739130434782608,24,29,31,82.76,77.42,80.0
nw.wsj_0003.3,0,0.10714285714285714,18,24,27,75.0,66.67,70.59
nw.wsj_0003.3,1,0.017857142857142856,19,25,27,76.0,70.37,73.08
nw.wsj_0003.3,2,0.10714285714285714,17,24,27,70.83,62.96,66.67
nw.wsj_0003.3,4,0.017857142857142856,18,25,27,72.0,66.67,69.23
nw.wsj_0003.3,5,0.10714285714285714,17,24,27,70.83,62.96,66.67
nw.wsj_0003.3,3,0.10714285714285714,19,24,27,79.17,70.37,74.51
nw.wsj_0003.3,6,0.10714285714285714,19,24,27,79.17,70.37,74.51
nw.wsj_0003.3,7,0.017857142857142856,18,25,27,72.0,66.67,69.23
nw.wsj_0003.3,8,0.10714285714285714,18,24,27,75.0,66.67,70.59
nw.wsj_0003.3,9,0.017857142857142856,19,25,27,76.0,70.37,73.08
nw.wsj_0003.4,0,0.5135135135135135,29,34,36,85.29,80.56,82.86
nw.wsj_0003.4,1,0.5135135135135135,28,34,36,82.35,77.78,80.0
nw.wsj_0003.4,2,0.5135135135135135,27,33,36,81.82,75.0,78.26
nw.wsj_0003.4,3,0.5135135135135135,28,33,36,84.85,77.78,81.16
nw.wsj_0003.4,4,0.5135135135135135,29,33,36,87.88,80.56,84.06
nw.wsj_0003.4,5,0.5135135135135135,28,33,36,84.85,77.78,81.16
nw.wsj_0003.4,6,0.5135135135135135,29,33,36,87.88,80.56,84.06
nw.wsj_0003.4,8,0.5135135135135135,28,32,36,87.5,77.78,82.35
nw.wsj_0003.4,7,0.5135135135135135,27,32,36,84.38,75.0,79.41
nw.wsj_0003.4,9,0.5135135135135135,27,32,36,84.38,75.0,79.41
nw.wsj_0003.5,0,1.0,8,8,8,100.0,100.0,100.0
nw.wsj_0003.5,1,1.0,8,8,8,100.0,100.0,100.0
nw.wsj_0003.5,2,1.0,7,8,8,87.5,87.5,87.5
nw.wsj_0003.5,4,0.42857142857142855,7,7,8,100.0,87.5,93.33
nw.wsj_0003.5,3,1.0,8,8,8,100.0,100.0,100.0
nw.wsj_0003.5,5,1.0,8,8,8,100.0,100.0,100.0
nw.wsj_0003.5,6,1.0,8,8,8,100.0,100.0,100.0
nw.wsj_0003.5,7,0.045454545454545456,7,8,8,87.5,87.5,87.5
nw.wsj_0003.5,8,0.047619047619047616,6,7,8,85.71,75.0,80.0
nw.wsj_0003.5,9,1.0,8,8,8,100.0,100.0,100.0
nw.wsj_0003.6,2,0.08823529411764706,13,15,16,86.67,81.25,83.87
nw.wsj_0003.6,0,0.6176470588235294,12,15,16,80.0,75.0,77.42
nw.wsj_0003.6,1,0.14705882352941177,13,15,16,86.67,81.25,83.87
nw.wsj_0003.6,3,0.08823529411764706,13,15,16,86.67,81.25,83.87
nw.wsj_0003.6,6,0.08823529411764706,13,15,16,86.67,81.25,83.87
nw.wsj_0003.6,5,0.14705882352941177,13,15,16,86.67,81.25,83.87
nw.wsj_0003.6,8,0.4857142857142857,11,15,16,73.33,68.75,70.97
nw.wsj_0003.6,7,0.5428571428571428,11,15,16,73.33,68.75,70.97
nw.wsj_0003.6,4,0.6176470588235294,11,15,16,73.33,68.75,70.97
nw.wsj_0003.7,0,1.0,6,7,7,85.71,85.71,85.71
nw.wsj_0003.6,9,0.4857142857142857,11,15,16,73.33,68.75,70.97
nw.wsj_0003.7,1,0.29411764705882354,5,7,7,71.43,71.43,71.43
nw.wsj_0003.7,2,1.0,5,7,7,71.43,71.43,71.43
nw.wsj_0003.7,3,1.0,7,7,7,100.0,100.0,100.0
nw.wsj_0003.7,5,0.2777777777777778,5,7,7,71.43,71.43,71.43
nw.wsj_0003.7,4,1.0,5,7,7,71.43,71.43,71.43
nw.wsj_0003.7,7,0.29411764705882354,5,7,7,71.43,71.43,71.43
nw.wsj_0003.7,8,0.17647058823529413,6,7,7,85.71,85.71,85.71
nw.wsj_0003.7,6,1.0,6,7,7,85.71,85.71,85.71
nw.wsj_0003.7,9,1.0,6,7,7,85.71,85.71,85.71
nw.wsj_0003.8,3,0.9069767441860465,21,23,24,91.3,87.5,89.36
nw.wsj_0003.8,0,0.7209302325581395,21,21,24,100.0,87.5,93.33
nw.wsj_0003.8,1,0.7209302325581395,20,21,24,95.24,83.33,88.89
nw.wsj_0003.8,2,0.9069767441860465,20,23,24,86.96,83.33,85.11
nw.wsj_0003.8,5,0.9047619047619048,20,23,24,86.96,83.33,85.11
nw.wsj_0003.8,6,0.7142857142857143,20,21,24,95.24,83.33,88.89
nw.wsj_0003.8,4,0.9047619047619048,21,23,24,91.3,87.5,89.36
nw.wsj_0003.9,0,0.061224489795918366,17,20,20,85.0,85.0,85.0
nw.wsj_0003.8,7,0.7142857142857143,21,21,24,100.0,87.5,93.33
nw.wsj_0003.8,8,0.7209302325581395,21,21,24,100.0,87.5,93.33
nw.wsj_0003.8,9,0.9069767441860465,21,23,24,91.3,87.5,89.36
nw.wsj_0003.9,3,0.061224489795918366,15,20,20,75.0,75.0,75.0
nw.wsj_0003.9,4,0.061224489795918366,18,20,20,90.0,90.0,90.0
nw.wsj_0003.9,5,0.061224489795918366,15,20,20,75.0,75.0,75.0
nw.wsj_0003.9,6,0.061224489795918366,14,20,20,70.0,70.0,70.0
nw.wsj_0003.9,2,0.6326530612244898,17,20,20,85.0,85.0,85.0
nw.wsj_0003.9,1,1.0,20,20,20,100.0,100.0,100.0
nw.wsj_0003.9,8,0.6326530612244898,14,20,20,70.0,70.0,70.0
nw.wsj_0003.9,7,1.0,17,20,20,85.0,85.0,85.0
nw.wsj_0003.10,0,0.16666666666666666,0,0,0,0.0,0.0,0.0
nw.wsj_0003.10,1,0.16666666666666666,16,19,23,84.21,69.57,76.19
nw.wsj_0003.10,2,0.16666666666666666,16,19,23,84.21,69.57,76.19
nw.wsj_0003.10,3,0.16666666666666666,0,0,0,0.0,0.0,0.0
nw.wsj_0003.10,4,0.16666666666666666,0,0,0,0.0,0.0,0.0
nw.wsj_0003.10,6,0.16666666666666666,0,0,0,0.0,0.0,0.0
nw.wsj_0003.10,5,0.16666666666666666,17,20,23,85.0,73.91,79.07
nw.wsj_0003.10,7,0.5625,0,0,0,0.0,0.0,0.0
nw.wsj_0003.10,8,0.5625,16,19,23,84.21,69.57,76.19
nw.wsj_0003.10,9,0.16666666666666666,17,19,23,89.47,73.91,80.95
nw.wsj_0003.11,0,0.1323529411764706,26,33,34,78.79,76.47,77.61
nw.wsj_0003.9,9,1.0,19,20,20,95.0,95.0,95.0
nw.wsj_0003.11,1,0.1323529411764706,26,33,34,78.79,76.47,77.61
nw.wsj_0003.11,2,0.1323529411764706,26,33,34,78.79,76.47,77.61
nw.wsj_0003.11,3,0.1323529411764706,27,33,34,81.82,79.41,80.6
nw.wsj_0003.11,4,0.1323529411764706,26,33,34,78.79,76.47,77.61
nw.wsj_0003.11,5,0.1323529411764706,27,33,34,81.82,79.41,80.6
nw.wsj_0003.11,6,0.1323529411764706,27,32,34,84.38,79.41,81.82
nw.wsj_0003.11,8,0.1323529411764706,26,32,34,81.25,76.47,78.79
nw.wsj_0003.11,7,0.1323529411764706,26,32,34,81.25,76.47,78.79
nw.wsj_0003.11,9,0.1323529411764706,26,32,34,81.25,76.47,78.79
nw.wsj_0003.12,2,0.95,15,16,16,93.75,93.75,93.75
nw.wsj_0003.12,0,0.95,14,16,16,87.5,87.5,87.5
nw.wsj_0003.12,1,1.0,14,16,16,87.5,87.5,87.5
nw.wsj_0003.12,4,0.95,15,16,16,93.75,93.75,93.75
nw.wsj_0003.12,3,1.0,16,16,16,100.0,100.0,100.0
nw.wsj_0003.12,5,1.0,15,16,16,93.75,93.75,93.75
nw.wsj_0003.12,6,1.0,13,16,16,81.25,81.25,81.25
nw.wsj_0003.12,9,0.35,14,17,16,82.35,87.5,84.85
nw.wsj_0003.12,7,1.0,14,16,16,87.5,87.5,87.5
nw.wsj_0003.13,0,0.022222222222222223,21,21,21,100.0,100.0,100.0
nw.wsj_0003.13,1,0.022222222222222223,20,21,21,95.24,95.24,95.24
nw.wsj_0003.13,2,0.022222222222222223,19,21,21,90.48,90.48,90.48
nw.wsj_0003.12,8,1.0,13,16,16,81.25,81.25,81.25
nw.wsj_0003.13,5,0.022222222222222223,19,21,21,90.48,90.48,90.48
nw.wsj_0003.13,3,0.022222222222222223,20,21,21,95.24,95.24,95.24
nw.wsj_0003.13,4,0.021739130434782608,19,20,21,95.0,90.48,92.68
nw.wsj_0003.13,6,0.022222222222222223,18,21,21,85.71,85.71,85.71
nw.wsj_0003.13,9,0.022222222222222223,20,21,21,95.24,95.24,95.24
nw.wsj_0003.13,7,0.022222222222222223,17,22,21,77.27,80.95,79.07
nw.wsj_0003.13,8,0.022222222222222223,18,22,21,81.82,85.71,83.72
nw.wsj_0003.14,1,0.02702702702702703,12,14,14,85.71,85.71,85.71
nw.wsj_0003.14,0,0.02702702702702703,13,14,14,92.86,92.86,92.86
nw.wsj_0003.14,2,0.02702702702702703,14,14,14,100.0,100.0,100.0
nw.wsj_0003.14,4,0.02702702702702703,12,14,14,85.71,85.71,85.71
nw.wsj_0003.14,3,0.02702702702702703,11,14,14,78.57,78.57,78.57
nw.wsj_0003.14,6,0.027777777777777776,13,14,14,92.86,92.86,92.86
nw.wsj_0003.14,7,0.027777777777777776,12,14,14,85.71,85.71,85.71
nw.wsj_0003.14,5,0.02702702702702703,13,14,14,92.86,92.86,92.86
nw.wsj_0003.14,9,0.02702702702702703,12,15,14,80.0,85.71,82.76
nw.wsj_0003.14,8,0.02702702702702703,11,15,14,73.33,78.57,75.86
nw.wsj_0003.15,0,0.42857142857142855,18,20,24,90.0,75.0,81.82
nw.wsj_0003.15,2,0.42857142857142855,17,21,24,80.95,70.83,75.56
nw.wsj_0003.15,4,0.42857142857142855,16,21,24,76.19,66.67,71.11
nw.wsj_0003.15,1,0.7959183673469388,19,19,24,100.0,79.17,88.37
nw.wsj_0003.15,3,0.7959183673469388,18,19,24,94.74,75.0,83.72
nw.wsj_0003.15,6,0.6938775510204082,19,19,24,100.0,79.17,88.37
nw.wsj_0003.15,5,0.5510204081632653,17,19,24,89.47,70.83,79.07
nw.wsj_0003.15,7,0.7959183673469388,17,19,24,89.47,70.83,79.07
nw.wsj_0003.16,0,0.24390243902439024,16,18,18,88.89,88.89,88.89
nw.wsj_0003.16,1,0.24390243902439024,18,18,18,100.0,100.0,100.0
nw.wsj_0003.15,9,0.5510204081632653,18,19,24,94.74,75.0,83.72
nw.wsj_0003.16,2,0.24390243902439024,15,18,18,83.33,83.33,83.33
nw.wsj_0003.16,3,0.24390243902439024,15,18,18,83.33,83.33,83.33
nw.wsj_0003.16,4,0.24390243902439024,14,18,18,77.78,77.78,77.78
nw.wsj_0003.16,5,0.24390243902439024,17,18,18,94.44,94.44,94.44
nw.wsj_0003.15,8,0.6938775510204082,18,19,24,94.74,75.0,83.72
nw.wsj_0003.16,6,0.24390243902439024,14,18,18,77.78,77.78,77.78
nw.wsj_0003.16,7,0.23809523809523808,16,18,18,88.89,88.89,88.89
nw.wsj_0003.16,9,0.23809523809523808,15,18,18,83.33,83.33,83.33
nw.wsj_0003.16,8,0.23809523809523808,18,18,18,100.0,100.0,100.0
nw.wsj_0003.17,0,0.0945945945945946,30,33,33,90.91,90.91,90.91
nw.wsj_0003.17,1,0.0945945945945946,29,33,33,87.88,87.88,87.88
nw.wsj_0003.17,3,0.0945945945945946,29,32,33,90.62,87.88,89.23
nw.wsj_0003.17,2,0.0945945945945946,30,32,33,93.75,90.91,92.31
nw.wsj_0003.17,4,0.0945945945945946,30,32,33,93.75,90.91,92.31
nw.wsj_0003.17,5,0.0945945945945946,29,32,33,90.62,87.88,89.23
nw.wsj_0003.17,6,0.0945945945945946,29,32,33,90.62,87.88,89.23
nw.wsj_0003.17,7,0.0945945945945946,28,32,33,87.5,84.85,86.15
nw.wsj_0003.18,1,1.0,19,20,22,95.0,86.36,90.48
nw.wsj_0003.18,0,0.6122448979591837,20,20,22,100.0,90.91,95.24
nw.wsj_0003.17,8,0.0945945945945946,29,32,33,90.62,87.88,89.23
nw.wsj_0003.18,2,1.0,20,20,22,100.0,90.91,95.24
nw.wsj_0003.17,9,0.0945945945945946,31,32,33,96.88,93.94,95.38
nw.wsj_0003.18,3,0.6122448979591837,19,20,22,95.0,86.36,90.48
nw.wsj_0003.18,4,0.6122448979591837,19,20,22,95.0,86.36,90.48
nw.wsj_0003.18,5,1.0,19,20,22,95.0,86.36,90.48
nw.wsj_0003.18,6,0.6122448979591837,19,20,22,95.0,86.36,90.48
nw.wsj_0003.18,7,1.0,19,20,22,95.0,86.36,90.48
nw.wsj_0003.18,8,0.5306122448979592,18,20,22,90.0,81.82,85.71
nw.wsj_0003.19,0,0.01098901098901099,35,40,44,87.5,79.55,83.33
nw.wsj_0003.19,1,0.01098901098901099,35,39,44,89.74,79.55,84.34
nw.wsj_0003.19,2,0.01098901098901099,36,39,44,92.31,81.82,86.75
nw.wsj_0003.19,3,0.01098901098901099,34,40,44,85.0,77.27,80.95
nw.wsj_0003.19,4,0.01098901098901099,34,39,44,87.18,77.27,81.93
nw.wsj_0003.19,5,0.01098901098901099,35,39,44,89.74,79.55,84.34
nw.wsj_0003.18,9,0.5306122448979592,19,20,22,95.0,86.36,90.48
nw.wsj_0003.19,6,0.01098901098901099,36,39,44,92.31,81.82,86.75
nw.wsj_0003.19,7,0.01098901098901099,36,40,44,90.0,81.82,85.71
nw.wsj_0003.19,8,0.01098901098901099,35,39,44,89.74,79.55,84.34
nw.wsj_0003.19,9,0.01098901098901099,34,39,44,87.18,77.27,81.93
nw.wsj_0003.20,0,0.09009009009009009,39,51,53,76.47,73.58,75.0
nw.wsj_0003.20,1,0.09009009009009009,39,51,53,76.47,73.58,75.0
nw.wsj_0003.20,3,0.09009009009009009,40,51,53,78.43,75.47,76.92
nw.wsj_0003.20,2,0.06306306306306306,37,51,53,72.55,69.81,71.15
nw.wsj_0003.20,4,0.09009009009009009,41,51,53,80.39,77.36,78.85
nw.wsj_0003.20,5,0.09009009009009009,40,52,53,76.92,75.47,76.19
nw.wsj_0003.20,6,0.09009009009009009,40,51,53,78.43,75.47,76.92
nw.wsj_0003.20,7,0.09009009009009009,40,52,53,76.92,75.47,76.19
nw.wsj_0003.21,0,0.2564102564102564,16,18,20,88.89,80.0,84.21
nw.wsj_0003.20,8,0.09009009009009009,39,51,53,76.47,73.58,75.0
nw.wsj_0003.20,9,0.09009009009009009,39,51,53,76.47,73.58,75.0
nw.wsj_0003.21,1,0.2564102564102564,16,18,20,88.89,80.0,84.21
nw.wsj_0003.21,2,0.2564102564102564,17,18,20,94.44,85.0,89.47
nw.wsj_0003.21,3,0.2564102564102564,16,19,20,84.21,80.0,82.05
nw.wsj_0003.21,4,0.2564102564102564,17,18,20,94.44,85.0,89.47
nw.wsj_0003.21,5,0.2564102564102564,16,19,20,84.21,80.0,82.05
nw.wsj_0003.21,6,0.2564102564102564,18,18,20,100.0,90.0,94.74
nw.wsj_0003.21,7,0.2564102564102564,17,19,20,89.47,85.0,87.18
nw.wsj_0003.21,8,0.2564102564102564,17,18,20,94.44,85.0,89.47
nw.wsj_0003.21,9,0.2564102564102564,16,18,20,88.89,80.0,84.21
nw.wsj_0003.22,0,1.0,13,15,15,86.67,86.67,86.67
nw.wsj_0003.22,1,1.0,14,15,15,93.33,93.33,93.33
nw.wsj_0003.22,2,1.0,12,15,15,80.0,80.0,80.0
nw.wsj_0003.22,3,1.0,13,15,15,86.67,86.67,86.67
nw.wsj_0003.22,5,1.0,12,15,15,80.0,80.0,80.0
nw.wsj_0003.22,4,1.0,13,15,15,86.67,86.67,86.67
nw.wsj_0003.22,6,1.0,12,15,15,80.0,80.0,80.0
nw.wsj_0003.22,7,1.0,13,15,15,86.67,86.67,86.67
nw.wsj_0003.23,0,1.0,11,12,13,91.67,84.62,88.0
nw.wsj_0003.22,8,1.0,14,15,15,93.33,93.33,93.33
nw.wsj_0003.22,9,0.6052631578947368,13,15,15,86.67,86.67,86.67
nw.wsj_0003.23,1,1.0,11,12,13,91.67,84.62,88.0
nw.wsj_0003.23,2,1.0,11,12,13,91.67,84.62,88.0
nw.wsj_0003.23,3,1.0,11,12,13,91.67,84.62,88.0
nw.wsj_0003.23,5,1.0,12,12,13,100.0,92.31,96.0
nw.wsj_0003.23,4,0.9333333333333333,12,12,13,100.0,92.31,96.0
nw.wsj_0003.23,6,0.03225806451612903,11,12,13,91.67,84.62,88.0
nw.wsj_0003.23,7,0.03225806451612903,11,12,13,91.67,84.62,88.0
nw.wsj_0003.23,8,1.0,10,12,13,83.33,76.92,80.0
nw.wsj_0003.23,9,1.0,10,12,13,83.33,76.92,80.0
nw.wsj_0003.24,0,1.0,18,21,21,85.71,85.71,85.71
nw.wsj_0003.24,2,1.0,17,21,21,80.95,80.95,80.95
nw.wsj_0003.24,1,1.0,19,21,21,90.48,90.48,90.48
nw.wsj_0003.24,4,1.0,18,21,21,85.71,85.71,85.71
nw.wsj_0003.24,3,1.0,16,21,21,76.19,76.19,76.19
nw.wsj_0003.24,5,1.0,16,21,21,76.19,76.19,76.19
nw.wsj_0003.24,7,1.0,17,21,21,80.95,80.95,80.95
nw.wsj_0003.24,6,1.0,18,21,21,85.71,85.71,85.71
nw.wsj_0003.24,9,1.0,20,21,21,95.24,95.24,95.24
nw.wsj_0003.24,8,1.0,19,21,21,90.48,90.48,90.48
nw.wsj_0003.25,0,0.038461538461538464,13,13,13,100.0,100.0,100.0
nw.wsj_0003.25,1,0.038461538461538464,12,13,13,92.31,92.31,92.31
nw.wsj_0003.25,2,1.0,13,13,13,100.0,100.0,100.0
nw.wsj_0003.25,3,0.038461538461538464,12,13,13,92.31,92.31,92.31
nw.wsj_0003.25,4,0.037037037037037035,12,12,13,100.0,92.31,96.0
nw.wsj_0003.25,6,0.038461538461538464,11,13,13,84.62,84.62,84.62
nw.wsj_0003.25,5,0.037037037037037035,11,12,13,91.67,84.62,88.0
nw.wsj_0003.25,8,0.037037037037037035,12,12,13,100.0,92.31,96.0
nw.wsj_0003.25,7,1.0,12,13,13,92.31,92.31,92.31
nw.wsj_0003.25,9,0.038461538461538464,11,12,13,91.67,84.62,88.0
nw.wsj_0003.26,2,0.43243243243243246,22,30,36,73.33,61.11,66.67
nw.wsj_0003.26,1,0.43243243243243246,24,30,36,80.0,66.67,72.73
nw.wsj_0003.26,0,0.43243243243243246,24,32,36,75.0,66.67,70.59
nw.wsj_0003.26,3,0.43243243243243246,22,30,36,73.33,61.11,66.67
nw.wsj_0003.26,5,0.43243243243243246,24,31,36,77.42,66.67,71.64
nw.wsj_0003.26,4,0.43243243243243246,24,30,36,80.0,66.67,72.73
nw.wsj_0003.26,6,0.43243243243243246,22,32,36,68.75,61.11,64.71
nw.wsj_0003.26,7,0.43243243243243246,24,32,36,75.0,66.67,70.59
nw.wsj_0003.26,8,0.3108108108108108,24,30,36,80.0,66.67,72.73
nw.wsj_0003.27,0,1.0,20,20,20,100.0,100.0,100.0
nw.wsj_0003.27,1,0.125,18,20,20,90.0,90.0,90.0
nw.wsj_0003.26,9,0.3108108108108108,24,30,36,80.0,66.67,72.73
nw.wsj_0003.27,2,0.4791666666666667,17,20,20,85.0,85.0,85.0
nw.wsj_0003.27,4,0.4791666666666667,16,20,20,80.0,80.0,80.0
nw.wsj_0003.27,3,1.0,19,20,20,95.0,95.0,95.0
nw.wsj_0003.27,5,0.75,16,20,20,80.0,80.0,80.0
nw.wsj_0003.27,7,0.08333333333333333,18,20,20,90.0,90.0,90.0
nw.wsj_0003.27,6,0.08333333333333333,16,20,20,80.0,80.0,80.0
nw.wsj_0003.27,8,0.125,18,20,20,90.0,90.0,90.0
nw.wsj_0003.27,9,0.375,20,20,20,100.0,100.0,100.0
nw.wsj_0003.28,1,0.1111111111111111,19,24,29,79.17,65.52,71.7
nw.wsj_0003.28,0,0.1111111111111111,20,24,29,83.33,68.97,75.47
nw.wsj_0003.28,2,0.1111111111111111,20,25,29,80.0,68.97,74.07
nw.wsj_0003.28,3,0.1111111111111111,21,24,29,87.5,72.41,79.25
nw.wsj_0003.28,4,0.1111111111111111,20,24,29,83.33,68.97,75.47
nw.wsj_0003.28,5,0.1111111111111111,19,25,29,76.0,65.52,70.37
nw.wsj_0003.28,7,0.1111111111111111,21,25,29,84.0,72.41,77.78
nw.wsj_0003.28,8,0.1111111111111111,20,25,29,80.0,68.97,74.07
nw.wsj_0003.28,9,0.1111111111111111,21,26,29,80.77,72.41,76.36
nw.wsj_0003.28,6,0.5873015873015873,22,24,29,91.67,75.86,83.02
nw.wsj_0003.29,2,1.0,13,13,14,100.0,92.86,96.3
nw.wsj_0003.29,1,1.0,12,13,14,92.31,85.71,88.89
nw.wsj_0003.29,0,1.0,12,13,14,92.31,85.71,88.89
nw.wsj_0003.29,3,1.0,12,13,14,92.31,85.71,88.89
nw.wsj_0003.29,4,1.0,12,13,14,92.31,85.71,88.89
nw.wsj_0003.29,5,1.0,12,13,14,92.31,85.71,88.89
nw.wsj_0003.29,6,1.0,11,13,14,84.62,78.57,81.48
nw.wsj_0003.29,7,1.0,11,13,14,84.62,78.57,81.48
nw.wsj_0003.30,0,1.0,7,8,8,87.5,87.5,87.5
nw.wsj_0003.30,1,1.0,6,8,8,75.0,75.0,75.0
nw.wsj_0003.30,2,1.0,6,8,8,75.0,75.0,75.0
nw.wsj_0003.30,3,1.0,5,8,8,62.5,62.5,62.5
nw.wsj_0003.30,4,1.0,7,8,8,87.5,87.5,87.5
nw.wsj_0003.30,5,0.2631578947368421,8,8,8,100.0,100.0,100.0
nw.wsj_0003.30,6,1.0,7,8,8,87.5,87.5,87.5
nw.wsj_0003.30,7,0.7894736842105263,6,8,8,75.0,75.0,75.0
nw.wsj_0003.30,9,1.0,6,8,8,75.0,75.0,75.0
nw.wsj_0003.30,8,1.0,7,8,8,87.5,87.5,87.5
nw.wsj_0004.1,0,0.2765957446808511,18,19,20,94.74,90.0,92.31
nw.wsj_0004.1,1,0.2765957446808511,18,19,20,94.74,90.0,92.31
nw.wsj_0004.1,3,0.2765957446808511,17,19,20,89.47,85.0,87.18
nw.wsj_0004.1,2,1.0,19,19,20,100.0,95.0,97.44
nw.wsj_0003.29,9,1.0,12,13,14,92.31,85.71,88.89
nw.wsj_0004.1,4,0.2765957446808511,17,19,20,89.47,85.0,87.18
nw.wsj_0004.1,5,1.0,18,19,20,94.74,90.0,92.31
nw.wsj_0004.1,6,0.2916666666666667,18,19,20,94.74,90.0,92.31
nw.wsj_0004.1,7,0.020833333333333332,16,19,20,84.21,80.0,82.05
nw.wsj_0004.1,8,0.020833333333333332,16,19,20,84.21,80.0,82.05
nw.wsj_0003.29,8,1.0,11,13,14,84.62,78.57,81.48
nw.wsj_0004.1,9,0.020833333333333332,17,19,20,89.47,85.0,87.18
nw.wsj_0004.2,0,0.8421052631578947,31,34,34,91.18,91.18,91.18
nw.wsj_0004.2,2,0.8421052631578947,30,34,34,88.24,88.24,88.24
nw.wsj_0004.2,1,0.8421052631578947,29,34,34,85.29,85.29,85.29
nw.wsj_0004.2,3,0.8421052631578947,30,34,34,88.24,88.24,88.24
nw.wsj_0004.2,6,0.39473684210526316,26,34,34,76.47,76.47,76.47
nw.wsj_0004.2,5,0.39473684210526316,28,34,34,82.35,82.35,82.35
nw.wsj_0004.2,4,0.5526315789473685,27,34,34,79.41,79.41,79.41
nw.wsj_0004.2,7,0.5526315789473685,28,34,34,82.35,82.35,82.35
nw.wsj_0004.4,0,0.017857142857142856,18,22,24,81.82,75.0,78.26
nw.wsj_0004.4,1,0.017857142857142856,18,22,24,81.82,75.0,78.26
nw.wsj_0004.4,2,0.30357142857142855,19,22,24,86.36,79.17,82.61
nw.wsj_0004.4,3,0.6607142857142857,19,22,24,86.36,79.17,82.61
nw.wsj_0004.4,4,0.6607142857142857,18,22,24,81.82,75.0,78.26
nw.wsj_0004.2,8,0.39473684210526316,27,34,34,79.41,79.41,79.41
nw.wsj_0004.4,5,0.30357142857142855,18,22,24,81.82,75.0,78.26
nw.wsj_0004.4,6,0.017857142857142856,16,22,24,72.73,66.67,69.57
nw.wsj_0004.4,7,0.017857142857142856,17,22,24,77.27,70.83,73.91
nw.wsj_0004.4,9,0.017857142857142856,17,22,24,77.27,70.83,73.91
nw.wsj_0004.4,8,0.30357142857142855,17,22,24,77.27,70.83,73.91
nw.wsj_0004.5,0,0.0196078431372549,22,25,27,88.0,81.48,84.62
nw.wsj_0004.5,1,0.0196078431372549,23,25,27,92.0,85.19,88.46
nw.wsj_0004.5,2,0.0196078431372549,22,25,27,88.0,81.48,84.62
nw.wsj_0004.5,4,0.0196078431372549,22,25,27,88.0,81.48,84.62
nw.wsj_0004.5,3,0.0196078431372549,23,25,27,92.0,85.19,88.46
nw.wsj_0004.5,5,0.0196078431372549,23,25,27,92.0,85.19,88.46
nw.wsj_0004.2,9,0.39473684210526316,27,34,34,79.41,79.41,79.41
nw.wsj_0004.5,6,0.0196078431372549,22,25,27,88.0,81.48,84.62
nw.wsj_0004.5,7,0.0196078431372549,23,25,27,92.0,85.19,88.46
nw.wsj_0004.5,8,0.0196078431372549,24,25,27,96.0,88.89,92.31
nw.wsj_0004.5,9,0.0196078431372549,23,25,27,92.0,85.19,88.46
nw.wsj_0004.6,0,0.2564102564102564,16,18,18,88.89,88.89,88.89
nw.wsj_0004.6,1,0.20512820512820512,17,18,18,94.44,94.44,94.44
nw.wsj_0004.6,2,0.15384615384615385,16,18,18,88.89,88.89,88.89
nw.wsj_0004.6,3,0.3076923076923077,17,18,18,94.44,94.44,94.44
nw.wsj_0004.6,4,0.20512820512820512,18,18,18,100.0,100.0,100.0
nw.wsj_0004.6,5,0.15384615384615385,17,18,18,94.44,94.44,94.44
nw.wsj_0004.6,6,0.3076923076923077,17,18,18,94.44,94.44,94.44
nw.wsj_0004.6,8,0.15,16,18,18,88.89,88.89,88.89
nw.wsj_0004.6,7,0.2,17,18,18,94.44,94.44,94.44
nw.wsj_0004.7,0,0.01282051282051282,24,33,35,72.73,68.57,70.59
nw.wsj_0004.6,9,0.20512820512820512,17,18,18,94.44,94.44,94.44
nw.wsj_0004.7,1,0.01282051282051282,25,33,35,75.76,71.43,73.53
nw.wsj_0004.7,2,0.01282051282051282,27,33,35,81.82,77.14,79.41
nw.wsj_0004.7,3,0.01282051282051282,26,33,35,78.79,74.29,76.47
nw.wsj_0004.7,4,0.01282051282051282,26,33,35,78.79,74.29,76.47
nw.wsj_0004.7,5,0.01282051282051282,27,33,35,81.82,77.14,79.41
nw.wsj_0004.7,7,0.01282051282051282,26,33,35,78.79,74.29,76.47
nw.wsj_0004.7,6,0.01282051282051282,25,33,35,75.76,71.43,73.53
nw.wsj_0004.7,8,0.01282051282051282,25,33,35,75.76,71.43,73.53
nw.wsj_0004.7,9,0.01282051282051282,25,33,35,75.76,71.43,73.53
nw.wsj_0004.8,0,0.31343283582089554,25,27,29,92.59,86.21,89.29
nw.wsj_0004.8,2,0.2835820895522388,22,27,29,81.48,75.86,78.57
nw.wsj_0004.8,1,0.47761194029850745,25,28,29,89.29,86.21,87.72
nw.wsj_0004.8,3,0.44776119402985076,24,28,29,85.71,82.76,84.21
nw.wsj_0004.8,5,0.07462686567164178,22,27,29,81.48,75.86,78.57
nw.wsj_0004.8,4,0.7910447761194029,26,27,29,96.3,89.66,92.86
nw.wsj_0004.8,6,0.2835820895522388,24,27,29,88.89,82.76,85.71
nw.wsj_0004.8,7,0.44776119402985076,22,28,29,78.57,75.86,77.19
nw.wsj_0004.8,8,0.2835820895522388,23,27,29,85.19,79.31,82.14
nw.wsj_0004.8,9,0.44776119402985076,23,28,29,82.14,79.31,80.7
nw.wsj_0004.9,0,1.0,18,19,19,94.74,94.74,94.74
nw.wsj_0004.9,1,0.5490196078431373,16,19,19,84.21,84.21,84.21
nw.wsj_0004.9,2,1.0,19,19,19,100.0,100.0,100.0
nw.wsj_0004.9,3,0.5490196078431373,15,19,19,78.95,78.95,78.95
nw.wsj_0004.9,4,0.6666666666666666,16,19,19,84.21,84.21,84.21
nw.wsj_0004.9,5,0.5490196078431373,15,19,19,78.95,78.95,78.95
nw.wsj_0004.9,6,1.0,17,19,19,89.47,89.47,89.47
nw.wsj_0004.10,0,1.0,12,13,14,92.31,85.71,88.89
nw.wsj_0004.9,7,0.6666666666666666,15,19,19,78.95,78.95,78.95
nw.wsj_0004.10,1,1.0,13,13,14,100.0,92.86,96.3
nw.wsj_0004.9,8,0.5490196078431373,14,19,19,73.68,73.68,73.68
nw.wsj_0004.9,9,1.0,18,19,19,94.74,94.74,94.74
nw.wsj_0004.10,3,1.0,12,13,14,92.31,85.71,88.89
nw.wsj_0004.10,2,1.0,12,13,14,92.31,85.71,88.89
nw.wsj_0004.10,6,0.029411764705882353,11,13,14,84.62,78.57,81.48
nw.wsj_0004.10,4,0.6470588235294118,12,13,14,92.31,85.71,88.89
nw.wsj_0004.10,8,0.029411764705882353,11,14,14,78.57,78.57,78.57
nw.wsj_0004.10,7,1.0,12,13,14,92.31,85.71,88.89
nw.wsj_0004.10,9,0.17142857142857143,8,13,14,61.54,57.14,59.26
nw.wsj_0004.10,5,1.0,12,13,14,92.31,85.71,88.89
nw.wsj_0004.11,2,0.75,17,18,18,94.44,94.44,94.44
nw.wsj_0004.11,0,0.75,18,18,18,100.0,100.0,100.0
nw.wsj_0004.11,4,0.75,17,18,18,94.44,94.44,94.44
nw.wsj_0004.11,3,1.0,17,18,18,94.44,94.44,94.44
nw.wsj_0004.11,1,1.0,18,18,18,100.0,100.0,100.0
nw.wsj_0004.11,5,1.0,17,18,18,94.44,94.44,94.44
nw.wsj_0004.11,7,0.7555555555555555,18,18,18,100.0,100.0,100.0
nw.wsj_0004.11,6,1.0,18,18,18,100.0,100.0,100.0
nw.wsj_0004.12,0,0.9555555555555556,18,19,21,94.74,85.71,90.0
nw.wsj_0004.11,9,0.75,17,18,18,94.44,94.44,94.44
nw.wsj_0004.12,1,0.9555555555555556,18,19,21,94.74,85.71,90.0
nw.wsj_0004.12,2,0.9555555555555556,18,20,21,90.0,85.71,87.8
nw.wsj_0004.12,3,0.7333333333333333,18,19,21,94.74,85.71,90.0
nw.wsj_0004.12,5,0.8,17,20,21,85.0,80.95,82.93
nw.wsj_0004.12,4,0.8,17,19,21,89.47,80.95,85.0
nw.wsj_0004.12,6,0.2222222222222222,16,19,21,84.21,76.19,80.0
nw.wsj_0004.11,8,1.0,17,18,18,94.44,94.44,94.44
nw.wsj_0004.12,8,0.4444444444444444,16,20,21,80.0,76.19,78.05
nw.wsj_0004.12,7,0.5777777777777777,17,19,21,89.47,80.95,85.0
nw.wsj_0004.12,9,0.4222222222222222,17,18,21,94.44,80.95,87.18
nw.wsj_0004.13,0,0.375,8,11,11,72.73,72.73,72.73
nw.wsj_0004.13,1,0.375,8,11,11,72.73,72.73,72.73
nw.wsj_0004.13,3,0.375,7,11,11,63.64,63.64,63.64
nw.wsj_0004.13,4,0.375,7,11,11,63.64,63.64,63.64
nw.wsj_0004.13,2,0.5416666666666666,8,11,11,72.73,72.73,72.73
nw.wsj_0004.13,8,0.5416666666666666,8,12,11,66.67,72.73,69.57
nw.wsj_0004.13,5,0.5416666666666666,7,11,11,63.64,63.64,63.64
nw.wsj_0004.13,6,1.0,9,11,11,81.82,81.82,81.82
nw.wsj_0004.13,9,0.375,8,12,11,66.67,72.73,69.57
nw.wsj_0004.13,7,1.0,9,11,11,81.82,81.82,81.82
nw.wsj_0004.14,0,0.2,22,24,26,91.67,84.62,88.0
nw.wsj_0004.14,1,0.2,22,24,26,91.67,84.62,88.0
nw.wsj_0004.14,2,0.23333333333333334,21,24,26,87.5,80.77,84.0
nw.wsj_0004.14,3,0.23333333333333334,21,24,26,87.5,80.77,84.0
nw.wsj_0004.14,4,0.23333333333333334,21,24,26,87.5,80.77,84.0
nw.wsj_0004.14,6,0.23333333333333334,21,24,26,87.5,80.77,84.0
nw.wsj_0004.14,5,0.23333333333333334,21,24,26,87.5,80.77,84.0
nw.wsj_0004.14,7,0.23333333333333334,21,24,26,87.5,80.77,84.0
nw.wsj_0004.15,0,0.41025641025641024,15,17,19,88.24,78.95,83.33
nw.wsj_0004.15,1,0.41025641025641024,14,17,19,82.35,73.68,77.78
nw.wsj_0004.15,2,0.41025641025641024,14,17,19,82.35,73.68,77.78
nw.wsj_0004.15,3,0.41025641025641024,13,17,19,76.47,68.42,72.22
nw.wsj_0004.15,4,0.41025641025641024,14,17,19,82.35,73.68,77.78
nw.wsj_0004.15,5,0.41025641025641024,13,17,19,76.47,68.42,72.22
nw.wsj_0004.15,6,0.41025641025641024,14,17,19,82.35,73.68,77.78
nw.wsj_0004.15,8,0.07692307692307693,14,18,19,77.78,73.68,75.68
nw.wsj_0004.15,7,0.3,13,17,19,76.47,68.42,72.22
nw.wsj_0004.15,9,0.41025641025641024,13,17,19,76.47,68.42,72.22
nw.wsj_0004.14,8,0.23333333333333334,21,24,26,87.5,80.77,84.0
nw.wsj_0004.16,1,1.0,15,15,15,100.0,100.0,100.0
nw.wsj_0004.16,0,1.0,14,15,15,93.33,93.33,93.33
nw.wsj_0004.16,2,1.0,14,15,15,93.33,93.33,93.33
nw.wsj_0004.14,9,0.9,21,24,26,87.5,80.77,84.0
nw.wsj_0004.16,4,1.0,13,15,15,86.67,86.67,86.67
nw.wsj_0004.16,3,1.0,15,15,15,100.0,100.0,100.0
nw.wsj_0004.16,5,1.0,13,15,15,86.67,86.67,86.67
nw.wsj_0004.16,6,0.0,14,15,15,93.33,93.33,93.33
nw.wsj_0004.16,7,1.0,14,15,15,93.33,93.33,93.33
nw.wsj_0004.16,9,1.0,14,15,15,93.33,93.33,93.33
nw.wsj_0004.16,8,1.0,14,15,15,93.33,93.33,93.33
nw.wsj_0004.17,0,0.017543859649122806,23,24,26,95.83,88.46,92.0
nw.wsj_0004.17,1,0.017543859649122806,22,24,26,91.67,84.62,88.0
nw.wsj_0004.17,2,0.017543859649122806,24,24,26,100.0,92.31,96.0
nw.wsj_0004.17,3,0.017543859649122806,23,24,26,95.83,88.46,92.0
nw.wsj_0004.17,4,0.017543859649122806,22,24,26,91.67,84.62,88.0
nw.wsj_0004.17,5,0.017543859649122806,22,24,26,91.67,84.62,88.0
nw.wsj_0004.17,6,0.017543859649122806,23,24,26,95.83,88.46,92.0
nw.wsj_0005.1,0,0.017857142857142856,21,24,27,87.5,77.78,82.35
nw.wsj_0005.1,1,0.017857142857142856,21,25,27,84.0,77.78,80.77
nw.wsj_0005.1,2,0.2857142857142857,25,25,27,100.0,92.59,96.15
nw.wsj_0005.1,3,0.2857142857142857,23,25,27,92.0,85.19,88.46
nw.wsj_0005.1,4,0.2857142857142857,24,25,27,96.0,88.89,92.31
nw.wsj_0004.17,7,0.017543859649122806,23,24,26,95.83,88.46,92.0
nw.wsj_0005.1,5,0.017857142857142856,23,29,27,79.31,85.19,82.14
nw.wsj_0005.1,6,0.017857142857142856,23,28,27,82.14,85.19,83.64
nw.wsj_0005.1,7,0.35714285714285715,24,26,27,92.31,88.89,90.57
nw.wsj_0005.1,9,0.017857142857142856,21,24,27,87.5,77.78,82.35
nw.wsj_0005.1,8,0.5892857142857143,25,26,27,96.15,92.59,94.34
nw.wsj_0005.2,0,0.375,13,13,17,100.0,76.47,86.67
nw.wsj_0005.2,1,0.625,15,15,17,100.0,88.24,93.75
nw.wsj_0004.17,8,0.017543859649122806,23,24,26,95.83,88.46,92.0
nw.wsj_0005.2,2,0.625,11,13,17,84.62,64.71,73.33
nw.wsj_0005.2,3,0.375,12,13,17,92.31,70.59,80.0
nw.wsj_0005.2,4,0.625,14,15,17,93.33,82.35,87.5
nw.wsj_0005.2,5,0.375,12,13,17,92.31,70.59,80.0
nw.wsj_0005.2,6,0.625,14,15,17,93.33,82.35,87.5
nw.wsj_0005.2,7,0.36363636363636365,13,13,17,100.0,76.47,86.67
nw.wsj_0005.2,8,0.5454545454545454,15,15,17,100.0,88.24,93.75
nw.wsj_0005.3,0,0.4230769230769231,10,10,10,100.0,100.0,100.0
nw.wsj_0005.2,9,0.36363636363636365,13,13,17,100.0,76.47,86.67
nw.wsj_0005.3,1,0.38461538461538464,7,10,10,70.0,70.0,70.0
nw.wsj_0005.3,2,0.4230769230769231,9,10,10,90.0,90.0,90.0
nw.wsj_0005.3,3,0.38461538461538464,6,10,10,60.0,60.0,60.0
nw.wsj_0005.3,4,0.4230769230769231,10,10,10,100.0,100.0,100.0
nw.wsj_0005.3,5,0.38461538461538464,7,10,10,70.0,70.0,70.0
nw.wsj_0005.3,6,0.4,10,10,10,100.0,100.0,100.0
nw.wsj_0005.3,7,0.4,7,10,10,70.0,70.0,70.0
nw.wsj_0005.3,8,0.4,7,10,10,70.0,70.0,70.0
nw.wsj_0005.3,9,0.4230769230769231,10,10,10,100.0,100.0,100.0
nw.wsj_0007.1,0,0.0,20,24,24,83.33,83.33,83.33
nw.wsj_0007.1,2,0.0,20,24,24,83.33,83.33,83.33
nw.wsj_0007.1,1,0.0,19,24,24,79.17,79.17,79.17
nw.wsj_0004.17,9,0.017543859649122806,22,24,26,91.67,84.62,88.0
nw.wsj_0007.1,4,0.0,19,24,24,79.17,79.17,79.17
nw.wsj_0007.1,3,0.0,19,24,24,79.17,79.17,79.17
nw.wsj_0007.1,5,0.0,20,24,24,83.33,83.33,83.33
nw.wsj_0007.1,7,0.0,20,24,24,83.33,83.33,83.33
nw.wsj_0007.2,0,1.0,13,13,13,100.0,100.0,100.0
nw.wsj_0007.2,1,1.0,12,13,13,92.31,92.31,92.31
nw.wsj_0007.2,2,1.0,12,13,13,92.31,92.31,92.31
nw.wsj_0007.2,3,0.8064516129032258,12,13,13,92.31,92.31,92.31
nw.wsj_0007.2,4,0.8064516129032258,11,13,13,84.62,84.62,84.62
nw.wsj_0007.2,5,0.8064516129032258,12,13,13,92.31,92.31,92.31
nw.wsj_0007.2,6,0.8064516129032258,11,13,13,84.62,84.62,84.62
nw.wsj_0007.2,7,1.0,13,13,13,100.0,100.0,100.0
nw.wsj_0007.2,8,1.0,12,13,13,92.31,92.31,92.31
nw.wsj_0007.2,9,1.0,12,13,13,92.31,92.31,92.31
nw.wsj_0007.3,0,0.9117647058823529,9,10,12,90.0,75.0,81.82
nw.wsj_0007.1,6,0.0,19,24,24,79.17,79.17,79.17
nw.wsj_0007.3,1,0.9117647058823529,10,10,12,100.0,83.33,90.91
nw.wsj_0007.3,2,1.0,9,10,12,90.0,75.0,81.82
nw.wsj_0007.3,4,0.02702702702702703,8,10,12,80.0,66.67,72.73
nw.wsj_0007.3,3,1.0,9,10,12,90.0,75.0,81.82
nw.wsj_0007.3,5,0.02702702702702703,9,10,12,90.0,75.0,81.82
nw.wsj_0007.3,6,0.02702702702702703,8,9,12,88.89,66.67,76.19
nw.wsj_0007.3,7,0.029411764705882353,8,8,12,100.0,66.67,80.0
nw.wsj_0007.3,8,0.029411764705882353,9,10,12,90.0,75.0,81.82
nw.wsj_0007.3,9,0.029411764705882353,9,10,12,90.0,75.0,81.82
nw.wsj_0007.1,8,0.0,19,24,24,79.17,79.17,79.17
nw.wsj_0007.4,1,0.3333333333333333,11,11,13,100.0,84.62,91.67
nw.wsj_0007.4,0,0.3333333333333333,11,11,13,100.0,84.62,91.67
nw.wsj_0007.1,9,0.0,19,24,24,79.17,79.17,79.17
nw.wsj_0007.4,2,0.3103448275862069,11,11,13,100.0,84.62,91.67
nw.wsj_0007.4,3,0.3333333333333333,11,11,13,100.0,84.62,91.67
nw.wsj_0007.4,4,0.3333333333333333,10,11,13,90.91,76.92,83.33
nw.wsj_0007.4,5,0.3333333333333333,11,11,13,100.0,84.62,91.67
nw.wsj_0007.4,6,0.3333333333333333,10,10,13,100.0,76.92,86.96
nw.wsj_0008.1,0,0.023255813953488372,19,19,19,100.0,100.0,100.0
nw.wsj_0008.1,1,0.023255813953488372,18,19,19,94.74,94.74,94.74
nw.wsj_0008.1,2,0.023255813953488372,18,19,19,94.74,94.74,94.74
nw.wsj_0008.1,3,0.023255813953488372,18,19,19,94.74,94.74,94.74
nw.wsj_0008.1,4,0.023255813953488372,18,19,19,94.74,94.74,94.74
nw.wsj_0008.1,5,0.022727272727272728,19,19,19,100.0,100.0,100.0
nw.wsj_0008.1,6,0.023255813953488372,17,19,19,89.47,89.47,89.47
nw.wsj_0008.1,7,0.023255813953488372,17,19,19,89.47,89.47,89.47
nw.wsj_0008.1,8,0.023255813953488372,17,19,19,89.47,89.47,89.47
nw.wsj_0008.1,9,0.023255813953488372,18,19,19,94.74,94.74,94.74
nw.wsj_0007.4,8,0.3333333333333333,10,11,13,90.91,76.92,83.33
nw.wsj_0008.2,0,0.1875,18,19,20,94.74,90.0,92.31
nw.wsj_0008.2,1,0.020833333333333332,15,18,20,83.33,75.0,78.95
nw.wsj_0008.2,2,0.1875,17,18,20,94.44,85.0,89.47
nw.wsj_0008.2,3,0.1875,17,19,20,89.47,85.0,87.18
nw.wsj_0008.2,4,0.1836734693877551,17,19,20,89.47,85.0,87.18
nw.wsj_0008.2,5,0.02040816326530612,14,18,20,77.78,70.0,73.68
nw.wsj_0008.2,6,0.1836734693877551,16,18,20,88.89,80.0,84.21
nw.wsj_0008.2,7,0.02040816326530612,15,19,20,78.95,75.0,76.92
nw.wsj_0008.2,8,0.02040816326530612,14,19,20,73.68,70.0,71.79
nw.wsj_0008.2,9,0.02040816326530612,13,18,20,72.22,65.0,68.42
nw.wsj_0008.3,1,1.0,15,16,16,93.75,93.75,93.75
nw.wsj_0007.4,7,0.7666666666666667,10,12,13,83.33,76.92,80.0
nw.wsj_0007.4,9,1.0,11,13,13,84.62,84.62,84.62
nw.wsj_0008.3,0,0.0,16,16,16,100.0,100.0,100.0
nw.wsj_0008.3,2,1.0,15,16,16,93.75,93.75,93.75
nw.wsj_0008.3,3,1.0,15,16,16,93.75,93.75,93.75
nw.wsj_0008.3,4,1.0,15,16,16,93.75,93.75,93.75
nw.wsj_0008.3,7,1.0,15,16,16,93.75,93.75,93.75
nw.wsj_0008.3,9,1.0,14,16,16,87.5,87.5,87.5
nw.wsj_0008.4,0,1.0,15,15,17,100.0,88.24,93.75
nw.wsj_0008.4,1,1.0,14,15,17,93.33,82.35,87.5
nw.wsj_0008.4,2,1.0,13,15,17,86.67,76.47,81.25
nw.wsj_0008.3,5,0.0,15,16,16,93.75,93.75,93.75
nw.wsj_0008.4,3,1.0,13,15,17,86.67,76.47,81.25
nw.wsj_0008.4,4,1.0,12,15,17,80.0,70.59,75.0
nw.wsj_0008.4,6,1.0,12,15,17,80.0,70.59,75.0
nw.wsj_0008.4,5,1.0,14,15,17,93.33,82.35,87.5
nw.wsj_0008.4,7,1.0,12,15,17,80.0,70.59,75.0
nw.wsj_0008.4,9,0.02857142857142857,13,15,17,86.67,76.47,81.25
nw.wsj_0008.4,8,1.0,15,15,17,100.0,88.24,93.75
nw.wsj_0008.5,0,0.49122807017543857,25,27,31,92.59,80.65,86.21
nw.wsj_0008.5,1,0.49122807017543857,24,27,31,88.89,77.42,82.76
nw.wsj_0008.5,2,0.49122807017543857,25,27,31,92.59,80.65,86.21
nw.wsj_0008.5,3,0.49122807017543857,25,27,31,92.59,80.65,86.21
nw.wsj_0008.5,5,0.49122807017543857,24,27,31,88.89,77.42,82.76
nw.wsj_0008.5,4,0.49122807017543857,25,27,31,92.59,80.65,86.21
nw.wsj_0008.5,6,0.49122807017543857,26,27,31,96.3,83.87,89.66
nw.wsj_0008.5,7,0.49122807017543857,25,27,31,92.59,80.65,86.21
nw.wsj_0008.5,8,0.49122807017543857,25,27,31,92.59,80.65,86.21
nw.wsj_0008.3,6,0.0,15,16,16,93.75,93.75,93.75
nw.wsj_0008.5,9,0.49122807017543857,24,27,31,88.89,77.42,82.76
nw.wsj_0008.6,0,1.0,17,18,18,94.44,94.44,94.44
nw.wsj_0008.6,1,1.0,18,18,18,100.0,100.0,100.0
nw.wsj_0008.6,2,1.0,16,18,18,88.89,88.89,88.89
nw.wsj_0008.6,3,1.0,17,18,18,94.44,94.44,94.44
nw.wsj_0008.6,4,1.0,17,18,18,94.44,94.44,94.44
nw.wsj_0008.6,6,1.0,15,18,18,83.33,83.33,83.33
nw.wsj_0008.6,5,1.0,16,18,18,88.89,88.89,88.89
nw.wsj_0008.6,7,1.0,16,18,18,88.89,88.89,88.89
nw.wsj_0008.6,8,1.0,16,18,18,88.89,88.89,88.89
nw.wsj_0008.6,9,1.0,15,18,18,83.33,83.33,83.33
nw.wsj_0008.3,8,0.0,15,16,16,93.75,93.75,93.75
nw.wsj_0009.1,1,0.21428571428571427,19,23,26,82.61,73.08,77.55
nw.wsj_0009.1,0,0.4107142857142857,21,24,26,87.5,80.77,84.0
nw.wsj_0009.1,2,0.3392857142857143,20,24,26,83.33,76.92,80.0
nw.wsj_0009.1,3,0.7142857142857143,21,25,26,84.0,80.77,82.35
nw.wsj_0009.1,4,0.3392857142857143,19,23,26,82.61,73.08,77.55
nw.wsj_0009.1,5,0.3392857142857143,19,23,26,82.61,73.08,77.55
nw.wsj_0009.1,6,0.21428571428571427,20,24,26,83.33,76.92,80.0
nw.wsj_0009.1,7,0.3392857142857143,20,23,26,86.96,76.92,81.63
nw.wsj_0009.2,0,0.36585365853658536,10,15,15,66.67,66.67,66.67
nw.wsj_0009.1,8,0.3392857142857143,19,24,26,79.17,73.08,76.0
nw.wsj_0009.1,9,0.6428571428571429,19,24,26,79.17,73.08,76.0
nw.wsj_0009.2,1,0.36585365853658536,10,15,15,66.67,66.67,66.67
nw.wsj_0009.2,2,0.36585365853658536,10,15,15,66.67,66.67,66.67
nw.wsj_0009.2,3,0.36585365853658536,10,15,15,66.67,66.67,66.67
nw.wsj_0009.2,4,0.36585365853658536,10,15,15,66.67,66.67,66.67
nw.wsj_0009.2,5,0.375,10,15,15,66.67,66.67,66.67
nw.wsj_0009.2,7,0.375,11,15,15,73.33,73.33,73.33
nw.wsj_0009.2,6,0.375,10,15,15,66.67,66.67,66.67
nw.wsj_0009.2,8,0.375,11,15,15,73.33,73.33,73.33
nw.wsj_0009.2,9,0.375,10,15,15,66.67,66.67,66.67
nw.wsj_0009.3,0,0.5909090909090909,12,15,15,80.0,80.0,80.0
nw.wsj_0009.3,2,0.7727272727272727,14,15,15,93.33,93.33,93.33
nw.wsj_0009.3,1,1.0,15,15,15,100.0,100.0,100.0
nw.wsj_0009.3,3,0.36363636363636365,11,15,15,73.33,73.33,73.33
nw.wsj_0009.3,5,0.4772727272727273,12,16,15,75.0,80.0,77.42
nw.wsj_0009.3,6,0.8837209302325582,14,16,15,87.5,93.33,90.32
nw.wsj_0009.3,4,0.8863636363636364,15,16,15,93.75,100.0,96.77
nw.wsj_0009.3,7,0.46511627906976744,11,16,15,68.75,73.33,70.97
nw.wsj_0009.3,8,0.37209302325581395,11,15,15,73.33,73.33,73.33
nw.wsj_0009.3,9,0.7906976744186046,14,15,15,93.33,93.33,93.33
nw.wsj_0009.4,1,0.1,9,14,12,64.29,75.0,69.23
nw.wsj_0009.4,0,0.1,9,13,12,69.23,75.0,72.0
nw.wsj_0009.4,2,0.1,9,12,12,75.0,75.0,75.0
nw.wsj_0009.4,3,0.1,9,12,12,75.0,75.0,75.0
nw.wsj_0009.4,4,0.1,9,13,12,69.23,75.0,72.0
nw.wsj_0009.4,5,0.10344827586206896,11,12,12,91.67,91.67,91.67
nw.wsj_0009.4,6,0.10344827586206896,11,12,12,91.67,91.67,91.67
nw.wsj_0009.4,7,0.1,8,12,12,66.67,66.67,66.67
nw.wsj_0009.4,8,0.1,8,12,12,66.67,66.67,66.67
nw.wsj_0009.4,9,0.1,10,12,12,83.33,83.33,83.33
nw.wsj_0010.1,0,0.2923076923076923,19,27,29,70.37,65.52,67.86
nw.wsj_0010.1,2,0.16923076923076924,18,27,29,66.67,62.07,64.29
nw.wsj_0010.1,1,0.47692307692307695,19,27,29,70.37,65.52,67.86
nw.wsj_0010.1,3,0.47692307692307695,19,27,29,70.37,65.52,67.86
nw.wsj_0010.1,5,0.2923076923076923,18,27,29,66.67,62.07,64.29
nw.wsj_0010.1,6,0.16923076923076924,19,27,29,70.37,65.52,67.86
nw.wsj_0010.1,4,0.16923076923076924,18,27,29,66.67,62.07,64.29
nw.wsj_0010.1,7,0.47692307692307695,18,27,29,66.67,62.07,64.29
nw.wsj_0010.2,0,1.0,2,2,2,100.0,100.0,100.0
nw.wsj_0010.2,1,1.0,1,2,2,50.0,50.0,50.0
nw.wsj_0010.2,2,1.0,2,2,2,100.0,100.0,100.0
nw.wsj_0010.2,3,1.0,2,2,2,100.0,100.0,100.0
nw.wsj_0010.2,4,1.0,0,2,2,0.0,0.0,0.0
nw.wsj_0010.2,5,1.0,1,2,2,50.0,50.0,50.0
nw.wsj_0010.2,6,1.0,1,1,2,100.0,50.0,66.67
nw.wsj_0010.2,7,1.0,1,2,2,50.0,50.0,50.0
nw.wsj_0010.2,8,1.0,0,2,2,0.0,0.0,0.0
nw.wsj_0010.2,9,1.0,1,2,2,50.0,50.0,50.0
nw.wsj_0010.3,0,0.32432432432432434,16,16,16,100.0,100.0,100.0
nw.wsj_0010.3,1,1.0,15,16,16,93.75,93.75,93.75
nw.wsj_0010.1,8,0.47692307692307695,20,27,29,74.07,68.97,71.43
nw.wsj_0010.1,9,0.16923076923076924,17,27,29,62.96,58.62,60.71
nw.wsj_0010.3,2,0.43243243243243246,15,16,16,93.75,93.75,93.75
nw.wsj_0010.3,3,0.32432432432432434,15,16,16,93.75,93.75,93.75
nw.wsj_0010.3,4,0.43243243243243246,15,16,16,93.75,93.75,93.75
nw.wsj_0010.3,5,0.32432432432432434,14,16,16,87.5,87.5,87.5
nw.wsj_0010.3,7,0.34210526315789475,16,16,16,100.0,100.0,100.0
nw.wsj_0010.3,6,0.43243243243243246,15,16,16,93.75,93.75,93.75
nw.wsj_0010.4,0,0.2894736842105263,13,16,19,81.25,68.42,74.29
nw.wsj_0010.4,1,0.2894736842105263,12,16,19,75.0,63.16,68.57
nw.wsj_0010.3,8,0.32432432432432434,15,16,16,93.75,93.75,93.75
nw.wsj_0010.4,2,0.2894736842105263,12,17,19,70.59,63.16,66.67
nw.wsj_0010.4,3,0.2894736842105263,13,16,19,81.25,68.42,74.29
nw.wsj_0010.4,4,0.2894736842105263,13,17,19,76.47,68.42,72.22
nw.wsj_0010.4,5,0.631578947368421,14,16,19,87.5,73.68,80.0
nw.wsj_0010.4,6,0.868421052631579,14,17,19,82.35,73.68,77.78
nw.wsj_0010.3,9,0.43243243243243246,14,16,16,87.5,87.5,87.5
nw.wsj_0010.4,7,0.631578947368421,14,16,19,87.5,73.68,80.0
nw.wsj_0010.4,8,0.631578947368421,14,16,19,87.5,73.68,80.0
nw.wsj_0010.4,9,0.868421052631579,14,17,19,82.35,73.68,77.78
nw.wsj_0010.5,0,0.2,32,36,40,88.89,80.0,84.21
nw.wsj_0010.5,1,0.2,34,37,40,91.89,85.0,88.31
nw.wsj_0010.5,2,0.2,33,37,40,89.19,82.5,85.71
nw.wsj_0010.5,3,0.2,33,36,40,91.67,82.5,86.84
nw.wsj_0010.5,4,0.2,33,36,40,91.67,82.5,86.84
nw.wsj_0010.5,5,0.2,32,36,40,88.89,80.0,84.21
nw.wsj_0010.5,7,0.2,34,37,40,91.89,85.0,88.31
nw.wsj_0010.5,6,0.2,33,36,40,91.67,82.5,86.84
nw.wsj_0010.5,8,0.2,33,36,40,91.67,82.5,86.84
nw.wsj_0010.5,9,0.2,33,36,40,91.67,82.5,86.84
nw.wsj_0010.6,1,0.2537313432835821,24,26,31,92.31,77.42,84.21
nw.wsj_0010.6,0,0.3283582089552239,24,26,31,92.31,77.42,84.21
nw.wsj_0010.6,2,0.3283582089552239,24,26,31,92.31,77.42,84.21
nw.wsj_0010.6,4,0.2537313432835821,24,27,31,88.89,77.42,82.76
nw.wsj_0010.6,3,0.3283582089552239,24,27,31,88.89,77.42,82.76
nw.wsj_0010.6,5,0.5970149253731343,25,26,31,96.15,80.65,87.72
nw.wsj_0010.6,7,0.2537313432835821,23,26,31,88.46,74.19,80.7
nw.wsj_0010.6,6,0.3283582089552239,25,27,31,92.59,80.65,86.21
nw.wsj_0010.6,8,0.3283582089552239,25,26,31,96.15,80.65,87.72
nw.wsj_0010.7,0,0.22641509433962265,20,22,24,90.91,83.33,86.96
nw.wsj_0010.6,9,0.3283582089552239,24,26,31,92.31,77.42,84.21
nw.wsj_0010.7,1,0.22641509433962265,20,22,24,90.91,83.33,86.96
nw.wsj_0010.7,3,0.22641509433962265,20,22,24,90.91,83.33,86.96
nw.wsj_0010.7,2,0.22641509433962265,21,22,24,95.45,87.5,91.3
nw.wsj_0010.7,4,0.22641509433962265,19,22,24,86.36,79.17,82.61
nw.wsj_0010.7,7,0.22641509433962265,19,22,24,86.36,79.17,82.61
nw.wsj_0010.7,8,0.22641509433962265,20,22,24,90.91,83.33,86.96
nw.wsj_0010.8,0,0.7272727272727273,2,2,4,100.0,50.0,66.67
nw.wsj_0010.8,1,0.3333333333333333,1,1,4,100.0,25.0,40.0
nw.wsj_0010.8,2,0.75,2,2,4,100.0,50.0,66.67
nw.wsj_0010.8,3,0.3333333333333333,1,1,4,100.0,25.0,40.0
nw.wsj_0010.7,9,0.22641509433962265,19,22,24,86.36,79.17,82.61
nw.wsj_0010.8,4,0.75,2,2,4,100.0,50.0,66.67
nw.wsj_0010.8,5,0.8,2,2,4,100.0,50.0,66.67
nw.wsj_0010.8,6,0.7,2,2,4,100.0,50.0,66.67
nw.wsj_0010.8,7,0.7272727272727273,2,2,4,100.0,50.0,66.67
nw.wsj_0010.8,8,1.0,1,2,4,50.0,25.0,33.33
nw.wsj_0010.8,9,1.0,2,3,4,66.67,50.0,57.14
nw.wsj_0010.9,1,0.01639344262295082,18,22,26,81.82,69.23,75.0
nw.wsj_0010.7,5,0.5094339622641509,21,22,24,95.45,87.5,91.3
nw.wsj_0010.9,0,0.3442622950819672,18,22,26,81.82,69.23,75.0
nw.wsj_0010.9,2,0.01639344262295082,18,22,26,81.82,69.23,75.0
nw.wsj_0010.7,6,0.7735849056603774,22,22,24,100.0,91.67,95.65
nw.wsj_0010.9,4,0.01639344262295082,19,22,26,86.36,73.08,79.17
nw.wsj_0010.9,3,0.47540983606557374,19,22,26,86.36,73.08,79.17
nw.wsj_0010.9,5,0.01639344262295082,19,22,26,86.36,73.08,79.17
nw.wsj_0010.9,6,0.45901639344262296,18,22,26,81.82,69.23,75.0
nw.wsj_0010.9,8,0.01639344262295082,15,22,26,68.18,57.69,62.5
nw.wsj_0010.9,9,0.01639344262295082,16,22,26,72.73,61.54,66.67
nw.wsj_0010.10,0,0.03225806451612903,14,14,14,100.0,100.0,100.0
nw.wsj_0010.9,7,0.5901639344262295,19,22,26,86.36,73.08,79.17
nw.wsj_0010.10,1,0.03225806451612903,14,14,14,100.0,100.0,100.0
nw.wsj_0010.10,2,0.03225806451612903,13,14,14,92.86,92.86,92.86
nw.wsj_0010.10,3,0.03225806451612903,13,15,14,86.67,92.86,89.66
nw.wsj_0010.10,4,0.03225806451612903,12,13,14,92.31,85.71,88.89
nw.wsj_0010.10,5,0.03225806451612903,13,13,14,100.0,92.86,96.3
nw.wsj_0010.10,6,0.03225806451612903,12,12,14,100.0,85.71,92.31
nw.wsj_0010.10,7,0.03125,14,14,14,100.0,100.0,100.0
nw.wsj_0010.10,8,0.03125,13,14,14,92.86,92.86,92.86
nw.wsj_0010.10,9,0.03125,14,14,14,100.0,100.0,100.0
nw.wsj_0010.11,2,0.425,15,18,20,83.33,75.0,78.95
nw.wsj_0010.11,0,0.925,16,18,20,88.89,80.0,84.21
nw.wsj_0010.11,1,0.925,15,18,20,83.33,75.0,78.95
nw.wsj_0010.11,3,0.925,15,18,20,83.33,75.0,78.95
nw.wsj_0010.11,4,0.925,16,18,20,88.89,80.0,84.21
nw.wsj_0010.11,5,0.425,17,18,20,94.44,85.0,89.47
nw.wsj_0010.11,6,0.925,17,18,20,94.44,85.0,89.47
nw.wsj_0010.11,7,0.925,16,18,20,88.89,80.0,84.21
nw.wsj_0010.11,8,0.925,15,18,20,83.33,75.0,78.95
nw.wsj_0010.11,9,0.925,16,18,20,88.89,80.0,84.21
nw.wsj_0010.12,0,0.3559322033898305,22,23,28,95.65,78.57,86.27
nw.wsj_0010.12,1,0.3559322033898305,22,23,28,95.65,78.57,86.27
nw.wsj_0010.12,2,0.3559322033898305,22,25,28,88.0,78.57,83.02
nw.wsj_0010.12,3,0.3559322033898305,22,25,28,88.0,78.57,83.02
nw.wsj_0010.12,4,0.3559322033898305,22,24,28,91.67,78.57,84.62
nw.wsj_0010.12,5,0.01694915254237288,22,23,28,95.65,78.57,86.27
nw.wsj_0010.12,6,0.01694915254237288,22,23,28,95.65,78.57,86.27
nw.wsj_0010.12,7,0.01694915254237288,22,25,28,88.0,78.57,83.02
nw.wsj_0010.12,8,0.01694915254237288,22,25,28,88.0,78.57,83.02
nw.wsj_0010.12,9,0.01694915254237288,22,24,28,91.67,78.57,84.62
nw.wsj_0010.13,0,0.47058823529411764,9,12,15,75.0,60.0,66.67
nw.wsj_0010.13,1,0.47058823529411764,10,12,15,83.33,66.67,74.07
nw.wsj_0010.13,2,0.4,9,12,15,75.0,60.0,66.67
nw.wsj_0010.13,3,0.4,8,12,15,66.67,53.33,59.26
nw.wsj_0010.13,4,0.47058823529411764,8,12,15,66.67,53.33,59.26
nw.wsj_0010.13,5,0.47058823529411764,9,12,15,75.0,60.0,66.67
nw.wsj_0010.13,7,0.47058823529411764,10,12,15,83.33,66.67,74.07
nw.wsj_0010.13,6,0.8529411764705882,10,12,15,83.33,66.67,74.07
nw.wsj_0010.14,0,0.15555555555555556,15,18,20,83.33,75.0,78.95
nw.wsj_0010.13,9,0.7714285714285715,9,12,15,75.0,60.0,66.67
nw.wsj_0010.14,2,0.15555555555555556,14,18,20,77.78,70.0,73.68
nw.wsj_0010.14,1,0.28888888888888886,11,18,20,61.11,55.0,57.89
nw.wsj_0010.13,8,0.47058823529411764,11,12,15,91.67,73.33,81.48
nw.wsj_0010.14,4,0.15555555555555556,11,18,20,61.11,55.0,57.89
nw.wsj_0010.14,3,0.28888888888888886,14,18,20,77.78,70.0,73.68
nw.wsj_0010.14,5,0.28888888888888886,15,18,20,83.33,75.0,78.95
nw.wsj_0010.14,6,0.37777777777777777,12,18,20,66.67,60.0,63.16
nw.wsj_0010.14,7,0.8,17,18,20,94.44,85.0,89.47
nw.wsj_0010.14,8,0.37777777777777777,15,18,20,83.33,75.0,78.95
nw.wsj_0010.14,9,0.37777777777777777,16,18,20,88.89,80.0,84.21
nw.wsj_0010.15,0,0.15384615384615385,14,16,17,87.5,82.35,84.85
nw.wsj_0010.15,1,0.15384615384615385,13,16,17,81.25,76.47,78.79
nw.wsj_0010.15,2,0.02564102564102564,13,18,17,72.22,76.47,74.29
nw.wsj_0010.15,3,0.02564102564102564,14,18,17,77.78,82.35,80.0
nw.wsj_0010.15,6,0.02631578947368421,14,18,17,77.78,82.35,80.0
nw.wsj_0010.15,7,0.02631578947368421,13,18,17,72.22,76.47,74.29
nw.wsj_0010.15,8,0.15384615384615385,13,16,17,81.25,76.47,78.79
nw.wsj_0010.15,9,0.02564102564102564,13,18,17,72.22,76.47,74.29
nw.wsj_0010.15,4,1.0,14,16,17,87.5,82.35,84.85
nw.wsj_0010.15,5,1.0,13,16,17,81.25,76.47,78.79
nw.wsj_0010.16,0,0.8333333333333334,8,10,12,80.0,66.67,72.73
nw.wsj_0010.16,1,0.8275862068965517,7,10,12,70.0,58.33,63.64
nw.wsj_0010.16,2,0.8333333333333334,9,12,12,75.0,75.0,75.0
nw.wsj_0010.16,3,0.8333333333333334,8,11,12,72.73,66.67,69.57
nw.wsj_0010.16,4,0.4666666666666667,8,10,12,80.0,66.67,72.73
nw.wsj_0010.16,5,0.6333333333333333,9,11,12,81.82,75.0,78.26
nw.wsj_0010.16,6,0.4666666666666667,8,10,12,80.0,66.67,72.73
nw.wsj_0010.16,7,0.6206896551724138,7,10,12,70.0,58.33,63.64
nw.wsj_0010.16,8,0.8275862068965517,7,11,12,63.64,58.33,60.87
nw.wsj_0010.16,9,0.4666666666666667,9,9,12,100.0,75.0,85.71
nw.wsj_0010.17,0,0.012048192771084338,31,32,44,96.88,70.45,81.58
nw.wsj_0010.17,1,0.012048192771084338,30,31,44,96.77,68.18,80.0
nw.wsj_0010.17,2,0.012048192771084338,29,31,44,93.55,65.91,77.33
nw.wsj_0010.17,3,0.012048192771084338,31,32,44,96.88,70.45,81.58
nw.wsj_0010.17,4,0.012048192771084338,30,31,44,96.77,68.18,80.0
nw.wsj_0010.17,5,0.012048192771084338,29,31,44,93.55,65.91,77.33
nw.wsj_0010.17,6,0.012048192771084338,30,31,44,96.77,68.18,80.0
nw.wsj_0010.17,7,0.012048192771084338,30,31,44,96.77,68.18,80.0
nw.wsj_0010.17,8,0.012048192771084338,29,31,44,93.55,65.91,77.33
nw.wsj_0010.18,1,0.021739130434782608,12,15,18,80.0,66.67,72.73
nw.wsj_0010.17,9,0.012048192771084338,30,32,44,93.75,68.18,78.95
nw.wsj_0010.18,0,0.8478260869565217,13,15,18,86.67,72.22,78.79
nw.wsj_0010.18,2,0.8444444444444444,13,15,18,86.67,72.22,78.79
nw.wsj_0010.18,3,0.7777777777777778,15,15,18,100.0,83.33,90.91
nw.wsj_0010.18,4,0.7608695652173914,12,15,18,80.0,66.67,72.73
nw.wsj_0010.18,5,0.022222222222222223,12,15,18,80.0,66.67,72.73
nw.wsj_0010.18,6,0.022222222222222223,14,15,18,93.33,77.78,84.85
nw.wsj_0010.18,7,0.6086956521739131,12,15,18,80.0,66.67,72.73
nw.wsj_0010.18,8,0.8478260869565217,12,16,18,75.0,66.67,70.59
nw.wsj_0010.19,0,1.0,17,20,21,85.0,80.95,82.93
nw.wsj_0010.18,9,0.7727272727272727,15,15,18,100.0,83.33,90.91
nw.wsj_0010.19,3,1.0,18,20,21,90.0,85.71,87.8
nw.wsj_0010.19,1,1.0,17,20,21,85.0,80.95,82.93
nw.wsj_0010.19,2,1.0,19,20,21,95.0,90.48,92.68
nw.wsj_0010.19,4,1.0,17,20,21,85.0,80.95,82.93
nw.wsj_0010.19,5,1.0,18,20,21,90.0,85.71,87.8
nw.wsj_0010.19,6,1.0,17,20,21,85.0,80.95,82.93
nw.wsj_0010.19,7,1.0,18,20,21,90.0,85.71,87.8
nw.wsj_0010.19,8,1.0,17,20,21,85.0,80.95,82.93
nw.wsj_0010.20,0,1.0,13,15,16,86.67,81.25,83.87
nw.wsj_0010.20,1,1.0,13,15,16,86.67,81.25,83.87
nw.wsj_0010.19,9,1.0,17,20,21,85.0,80.95,82.93
nw.wsj_0010.20,3,0.5555555555555556,14,15,16,93.33,87.5,90.32
nw.wsj_0010.20,2,1.0,13,15,16,86.67,81.25,83.87
nw.wsj_0010.20,4,1.0,12,15,16,80.0,75.0,77.42
nw.wsj_0010.20,5,1.0,12,15,16,80.0,75.0,77.42
nw.wsj_0010.20,6,1.0,12,15,16,80.0,75.0,77.42
nw.wsj_0010.20,7,1.0,13,15,16,86.67,81.25,83.87
nw.wsj_0010.20,8,1.0,13,15,16,86.67,81.25,83.87
nw.wsj_0010.20,9,0.5555555555555556,13,15,16,86.67,81.25,83.87
nw.wsj_0011.1,0,0.1016949152542373,19,23,23,82.61,82.61,82.61
nw.wsj_0011.1,1,0.1016949152542373,20,23,23,86.96,86.96,86.96
nw.wsj_0011.1,2,0.1016949152542373,19,23,23,82.61,82.61,82.61
nw.wsj_0011.1,3,0.1016949152542373,20,23,23,86.96,86.96,86.96
nw.wsj_0011.1,5,0.1016949152542373,20,23,23,86.96,86.96,86.96
nw.wsj_0011.1,6,0.1016949152542373,20,23,23,86.96,86.96,86.96
nw.wsj_0011.1,4,0.3728813559322034,21,23,23,91.3,91.3,91.3
nw.wsj_0011.1,7,0.1016949152542373,20,23,23,86.96,86.96,86.96
nw.wsj_0011.1,8,0.3728813559322034,21,23,23,91.3,91.3,91.3
nw.wsj_0011.1,9,0.3728813559322034,21,23,23,91.3,91.3,91.3
nw.wsj_0011.2,0,0.27941176470588236,24,27,32,88.89,75.0,81.36
nw.wsj_0011.2,1,0.27941176470588236,24,28,32,85.71,75.0,80.0
nw.wsj_0011.2,2,0.23529411764705882,23,27,32,85.19,71.88,77.97
nw.wsj_0011.2,3,0.23529411764705882,24,28,32,85.71,75.0,80.0
nw.wsj_0011.2,4,0.23529411764705882,23,29,32,79.31,71.88,75.41
nw.wsj_0011.2,5,0.23529411764705882,25,27,32,92.59,78.12,84.75
nw.wsj_0011.2,6,0.23529411764705882,24,27,32,88.89,75.0,81.36
nw.wsj_0011.2,8,0.23529411764705882,24,29,32,82.76,75.0,78.69
nw.wsj_0011.2,7,0.23529411764705882,23,28,32,82.14,71.88,76.67
nw.wsj_0011.2,9,0.23529411764705882,24,27,32,88.89,75.0,81.36
nw.wsj_0011.3,3,0.7368421052631579,24,30,32,80.0,75.0,77.42
nw.wsj_0011.3,0,0.868421052631579,24,31,32,77.42,75.0,76.19
nw.wsj_0011.3,1,0.868421052631579,23,31,32,74.19,71.88,73.02
nw.wsj_0011.3,2,0.868421052631579,22,31,32,70.97,68.75,69.84
nw.wsj_0011.3,4,0.7368421052631579,23,30,32,76.67,71.88,74.19
nw.wsj_0011.3,6,0.6578947368421053,23,31,32,74.19,71.88,73.02
nw.wsj_0011.3,5,0.7368421052631579,22,30,32,73.33,68.75,70.97
nw.wsj_0011.4,0,0.7142857142857143,21,21,26,100.0,80.77,89.36
nw.wsj_0011.4,1,0.5892857142857143,21,21,26,100.0,80.77,89.36
nw.wsj_0011.4,2,0.44642857142857145,19,21,26,90.48,73.08,80.85
nw.wsj_0011.4,3,0.75,20,21,26,95.24,76.92,85.11
nw.wsj_0011.3,7,0.5263157894736842,23,30,32,76.67,71.88,74.19
nw.wsj_0011.4,4,0.625,20,21,26,95.24,76.92,85.11
nw.wsj_0011.4,5,0.017857142857142856,20,21,26,95.24,76.92,85.11
nw.wsj_0011.4,6,0.017857142857142856,20,21,26,95.24,76.92,85.11
nw.wsj_0011.4,7,0.017543859649122806,17,21,26,80.95,65.38,72.34
nw.wsj_0011.4,8,0.017543859649122806,19,21,26,90.48,73.08,80.85
nw.wsj_0011.4,9,0.017543859649122806,18,21,26,85.71,69.23,76.6
nw.wsj_0011.5,0,0.022727272727272728,18,20,20,90.0,90.0,90.0
nw.wsj_0011.5,1,0.022727272727272728,19,20,20,95.0,95.0,95.0
nw.wsj_0011.5,2,0.022727272727272728,18,20,20,90.0,90.0,90.0
nw.wsj_0011.5,3,0.022727272727272728,19,20,20,95.0,95.0,95.0
nw.wsj_0011.5,4,0.022727272727272728,19,20,20,95.0,95.0,95.0
nw.wsj_0011.5,5,0.022727272727272728,20,20,20,100.0,100.0,100.0
nw.wsj_0011.5,6,0.022727272727272728,18,20,20,90.0,90.0,90.0
nw.wsj_0011.5,7,0.022727272727272728,19,20,20,95.0,95.0,95.0
nw.wsj_0011.5,9,0.022727272727272728,18,20,20,90.0,90.0,90.0
nw.wsj_0011.5,8,0.022727272727272728,19,20,20,95.0,95.0,95.0
nw.wsj_0011.6,0,1.0,17,19,19,89.47,89.47,89.47
nw.wsj_0011.6,1,1.0,16,19,19,84.21,84.21,84.21
nw.wsj_0011.6,2,0.9534883720930233,17,19,19,89.47,89.47,89.47
nw.wsj_0011.6,3,0.9534883720930233,18,19,19,94.74,94.74,94.74
nw.wsj_0011.6,5,1.0,17,19,19,89.47,89.47,89.47
nw.wsj_0011.6,4,0.9534883720930233,19,19,19,100.0,100.0,100.0
nw.wsj_0011.6,6,1.0,18,19,19,94.74,94.74,94.74
nw.wsj_0011.6,7,0.9545454545454546,18,19,19,94.74,94.74,94.74
nw.wsj_0011.6,8,0.9545454545454546,17,19,19,89.47,89.47,89.47
nw.wsj_0011.6,9,0.9545454545454546,18,19,19,94.74,94.74,94.74
nw.wsj_0011.7,0,0.02,17,21,21,80.95,80.95,80.95
nw.wsj_0011.7,1,0.02,15,21,21,71.43,71.43,71.43
nw.wsj_0011.3,8,0.7368421052631579,23,30,32,76.67,71.88,74.19
nw.wsj_0011.3,9,0.5263157894736842,23,30,32,76.67,71.88,74.19
nw.wsj_0011.7,3,0.02,16,21,21,76.19,76.19,76.19
nw.wsj_0011.7,2,0.12,16,21,21,76.19,76.19,76.19
nw.wsj_0011.7,4,0.02,14,21,21,66.67,66.67,66.67
nw.wsj_0011.7,5,0.02,17,21,21,80.95,80.95,80.95
nw.wsj_0011.7,6,0.02,15,21,21,71.43,71.43,71.43
nw.wsj_0011.8,0,0.625,6,8,8,75.0,75.0,75.0
nw.wsj_0011.7,9,0.02,16,21,21,76.19,76.19,76.19
nw.wsj_0011.7,7,0.12,15,21,21,71.43,71.43,71.43
nw.wsj_0011.7,8,0.12,16,21,21,76.19,76.19,76.19
nw.wsj_0011.8,3,0.625,7,8,8,87.5,87.5,87.5
nw.wsj_0011.8,5,0.625,7,8,8,87.5,87.5,87.5
nw.wsj_0011.8,6,0.0,7,8,8,87.5,87.5,87.5
nw.wsj_0011.8,7,0.625,5,8,8,62.5,62.5,62.5
nw.wsj_0011.8,8,0.625,7,8,8,87.5,87.5,87.5
nw.wsj_0011.8,2,0.0,7,8,8,87.5,87.5,87.5
nw.wsj_0012.1,0,0.421875,22,26,28,84.62,78.57,81.48
nw.wsj_0012.1,1,0.421875,21,26,28,80.77,75.0,77.78
nw.wsj_0011.8,4,0.0,7,8,8,87.5,87.5,87.5
nw.wsj_0012.1,2,0.53125,21,27,28,77.78,75.0,76.36
nw.wsj_0012.1,3,0.421875,21,26,28,80.77,75.0,77.78
nw.wsj_0012.1,4,0.421875,21,26,28,80.77,75.0,77.78
nw.wsj_0012.1,5,0.421875,21,26,28,80.77,75.0,77.78
nw.wsj_0012.1,6,0.421875,21,26,28,80.77,75.0,77.78
nw.wsj_0012.1,7,0.421875,21,26,28,80.77,75.0,77.78
nw.wsj_0012.1,8,0.421875,21,26,28,80.77,75.0,77.78
nw.wsj_0012.1,9,0.421875,20,26,28,76.92,71.43,74.07
nw.wsj_0012.2,0,0.016666666666666666,20,26,28,76.92,71.43,74.07
nw.wsj_0012.2,1,0.016666666666666666,21,26,28,80.77,75.0,77.78
nw.wsj_0012.2,2,0.016666666666666666,21,27,28,77.78,75.0,76.36
nw.wsj_0012.2,3,0.016666666666666666,20,26,28,76.92,71.43,74.07
nw.wsj_0012.2,4,0.016666666666666666,20,27,28,74.07,71.43,72.73
nw.wsj_0012.2,5,0.016666666666666666,21,27,28,77.78,75.0,76.36
nw.wsj_0012.2,6,0.016666666666666666,21,26,28,80.77,75.0,77.78
nw.wsj_0012.2,7,0.016666666666666666,22,26,28,84.62,78.57,81.48
nw.wsj_0012.2,8,0.016666666666666666,22,27,28,81.48,78.57,80.0
nw.wsj_0012.2,9,0.016666666666666666,21,26,28,80.77,75.0,77.78
nw.wsj_0012.3,0,0.20618556701030927,39,43,52,90.7,75.0,82.11
nw.wsj_0012.3,1,0.20618556701030927,39,43,52,90.7,75.0,82.11
nw.wsj_0011.8,1,1.0,8,8,8,100.0,100.0,100.0
nw.wsj_0012.3,2,0.25773195876288657,42,43,52,97.67,80.77,88.42
nw.wsj_0012.3,3,0.25773195876288657,41,43,52,95.35,78.85,86.32
nw.wsj_0012.3,4,0.25773195876288657,42,43,52,97.67,80.77,88.42
nw.wsj_0012.3,5,0.25773195876288657,41,43,52,95.35,78.85,86.32
nw.wsj_0012.3,6,0.25773195876288657,40,43,52,93.02,76.92,84.21
nw.wsj_0012.3,7,0.25773195876288657,42,43,52,97.67,80.77,88.42
nw.wsj_0012.3,8,0.25773195876288657,40,43,52,93.02,76.92,84.21
nw.wsj_0012.3,9,0.25773195876288657,42,43,52,97.67,80.77,88.42
nw.wsj_0012.4,0,1.0,15,17,17,88.24,88.24,88.24
nw.wsj_0012.4,1,1.0,16,17,17,94.12,94.12,94.12
nw.wsj_0011.8,9,1.0,5,8,8,62.5,62.5,62.5
nw.wsj_0012.4,2,1.0,15,17,17,88.24,88.24,88.24
nw.wsj_0012.4,3,1.0,16,17,17,94.12,94.12,94.12
nw.wsj_0012.4,4,1.0,17,17,17,100.0,100.0,100.0
nw.wsj_0012.4,5,1.0,15,17,17,88.24,88.24,88.24
nw.wsj_0012.4,6,1.0,15,17,17,88.24,88.24,88.24
nw.wsj_0012.4,7,1.0,16,17,17,94.12,94.12,94.12
nw.wsj_0012.4,8,1.0,15,17,17,88.24,88.24,88.24
nw.wsj_0012.4,9,1.0,15,17,17,88.24,88.24,88.24
nw.wsj_0012.5,0,1.0,10,10,10,100.0,100.0,100.0
nw.wsj_0012.5,1,0.92,10,10,10,100.0,100.0,100.0
nw.wsj_0012.5,2,1.0,9,10,10,90.0,90.0,90.0
nw.wsj_0012.5,5,0.04,9,10,10,90.0,90.0,90.0
nw.wsj_0012.5,3,0.6153846153846154,8,11,10,72.73,80.0,76.19
nw.wsj_0012.5,6,0.04,9,10,10,90.0,90.0,90.0
nw.wsj_0012.5,7,0.04,8,10,10,80.0,80.0,80.0
nw.wsj_0012.5,4,0.8076923076923077,8,12,10,66.67,80.0,72.73
nw.wsj_0012.5,8,1.0,10,10,10,100.0,100.0,100.0
nw.wsj_0012.5,9,0.92,10,10,10,100.0,100.0,100.0
